{
    "none": "(none) Without Animate",
    "flash": "Flash Animation",
    "shake": "Shake Animation",
    "bounce": "Bounce Animation",
    "bounceInUp": "Bounce In Up",
    "bounceInDown": "Bounce In Down",
    "bounceInLeft": "Bounce In Left",
    "bounceInRight": "Bounce In Right",
    "fadeIn": "Fade In",
    "fadeInLeft": "Fade In Left",
    "fadeInRight": "Fade In Right",
    "tada": "Tada Animation",
    "flip": "Flip Animation",
    "zoomIn": "Zoom In"
}
