{
    ".aspx": "aspx - http://domain.com/page.aspx",
    ".html": "html - http://domain.com/page.html",
    ".jsp": "java - http://domain.com/page.jsp",
    ".md": "md - http://domain.com/page.md",
    ".php": "php - http://domain.com/page.php",
    ".txt": "txt - http://domain.com/page.txt",
    ".xml": "xml - http://domain.com/page.xml"
}
