"Username","Puskesmas","Kode Kabupaten","Nama Kabupaten","Kode Provinsi","ref_jenis_faskes_kode","Nama Provinsi"
"P3207300202","PAYUNGSARI",3207,"Kab. Ciamis",32,1,"Jawa Barat"
"P3207300101","PANUMBANGAN",3207,"Kab. Ciamis",32,1,"Jawa Barat"
"P3207291101","SUKAMANTRI",3207,"Kab. Ciamis",32,1,"Jawa Barat"
"P3207290101","PANJALU",3207,"Kab. Ciamis",32,1,"Jawa Barat"
"P3207280203","KAWALIMUKTI",3207,"Kab. Ciamis",32,1,"Jawa Barat"
"P3207280202","LUMBUNG",3207,"Kab. Ciamis",32,1,"Jawa Barat"
"P3207280101","KAWALI",3207,"Kab. Ciamis",32,1,"Jawa Barat"
"P3207270202","PANAWANGAN",3207,"Kab. Ciamis",32,1,"Jawa Barat"
"P3207270101","GARDUJAYA",3207,"Kab. Ciamis",32,1,"Jawa Barat"
"P3207260201","JATINAGARA",3207,"Kab. Ciamis",32,1,"Jawa Barat"
"P3207250202","CIEURIH",3207,"Kab. Ciamis",32,1,"Jawa Barat"
"P3207250101","CIPAKU",3207,"Kab. Ciamis",32,1,"Jawa Barat"
"P3207240201","SADANANYA",3207,"Kab. Ciamis",32,1,"Jawa Barat"
"P3207230202","SUKAMULYA",3207,"Kab. Ciamis",32,1,"Jawa Barat"
"P3207230201","CIHAURBEUTI",3207,"Kab. Ciamis",32,1,"Jawa Barat"
"P3207220202","MANDALIKA",3207,"Kab. Ciamis",32,1,"Jawa Barat"
"P3207220201","SINDANGKASIH",3207,"Kab. Ciamis",32,1,"Jawa Barat"
"P3207211201","BAREGBEG",3207,"Kab. Ciamis",32,1,"Jawa Barat"
"P3207210202","IMBANAGARA",3207,"Kab. Ciamis",32,1,"Jawa Barat"
"P3207210201","CIAMIS",3207,"Kab. Ciamis",32,1,"Jawa Barat"
"P3207200201","MARGAHARJA",3207,"Kab. Ciamis",32,1,"Jawa Barat"
"P3207190201","RAJADESA",3207,"Kab. Ciamis",32,1,"Jawa Barat"
"P3207180101","RANCAH",3207,"Kab. Ciamis",32,1,"Jawa Barat"
"P3207170201","TAMBAKSARI",3207,"Kab. Ciamis",32,1,"Jawa Barat"
"P3207160201","CISAGA",3207,"Kab. Ciamis",32,1,"Jawa Barat"
"P3207150202","HANDAPHERANG",3207,"Kab. Ciamis",32,1,"Jawa Barat"
"P3207150201","CIJEUNGJING",3207,"Kab. Ciamis",32,1,"Jawa Barat"
"P3207140101","CIMARAGAS",3207,"Kab. Ciamis",32,1,"Jawa Barat"
"P3207130201","JANGGALA",3207,"Kab. Ciamis",32,1,"Jawa Barat"
"P3207120202","KERTAHAYU",3207,"Kab. Ciamis",32,1,"Jawa Barat"
"P3207120201","PAMARICAN",3207,"Kab. Ciamis",32,1,"Jawa Barat"
"P3207111201","CIAWITALI",3207,"Kab. Ciamis",32,1,"Jawa Barat"
"P3207110202","SIDAHARJA",3207,"Kab. Ciamis",32,1,"Jawa Barat"
"P3207110101","LAKBOK",3207,"Kab. Ciamis",32,1,"Jawa Barat"
"P3207100203","CIGAYAM",3207,"Kab. Ciamis",32,1,"Jawa Barat"
"P3207100202","CIULU",3207,"Kab. Ciamis",32,1,"Jawa Barat"
"P3207100101","BANJARSARI",3207,"Kab. Ciamis",32,1,"Jawa Barat"
"P4236T","panumbangan",3207,"Kab. Ciamis",32,1,"Jawa Barat"
