"Username","Bpkm","Kode Kabupaten","Nama Kabupaten","Kode Provinsi","ref_jenis_faskes_kode","Nama Provinsi"
"H1377101","Balai Pengobatan Tin Sukandar","1377","Kota Pariaman","13","8","Sumatera Barat"
"H1377105","Balad Medical Center","1377","Kota Pariaman","13","8","Sumatera Barat"
"H1377107","Bahagia Medical Center","1377","Kota Pariaman","13","8","Sumatera Barat"
"H1410101","BP KODUR PSA ,TLK BELITUNG","1410","Kab. Kep. Meranti","14","8","Riau"
"H1803058","BP YPPK Bukit Duri ","1803","Kab. Lampung Selatan","18","8","Lampung"
"H1803059","BP Kalianda Sehat","1803","Kab. Lampung Selatan","18","8","Lampung"
"H1803060","BP RB Karya Husada","1803","Kab. Lampung Selatan","18","8","Lampung"
"H1803061","BP PT Central Pertiwi bahari","1803","Kab. Lampung Selatan","18","8","Lampung"
"H1803062","BP Rajabasa","1803","Kab. Lampung Selatan","18","8","Lampung"
"H1803063","BP PT. Central Proteinaprima TBK","1803","Kab. Lampung Selatan","18","8","Lampung"
"H1803065","BP. Al-Ikhlas Cabang Katibung","1803","Kab. Lampung Selatan","18","8","Lampung"
"H1803066","BP Puskesbun PT Perkebunan","1803","Kab. Lampung Selatan","18","8","Lampung"
"H1803067","BP. Kosasih","1803","Kab. Lampung Selatan","18","8","Lampung"
"H1803068","BP. Dua Putri jaya","1803","Kab. Lampung Selatan","18","8","Lampung"
"H1803069","BP. Madani Palas","1803","Kab. Lampung Selatan","18","8","Lampung"
"H1905015","BP / RB Bhaktiwara Muntok","1905","Kab. Bangka Selatan","19","8","Kep. Bangka Belitung "
"H1905016","BP / RB Advent Muntok","1905","Kab. Bangka Selatan","19","8","Kep. Bangka Belitung "
"H2072101","BP Mitra Bunda","2172","Kota Tanjung Pinang","21","8","Kep. Riau"
"H2072102","BP PT. Some Indonesia","2172","Kota Tanjung Pinang","21","8","Kep. Riau"
"H2072104","BPS Bid Stefony Nolory","2172","Kota Tanjung Pinang","21","8","Kep. Riau"
"H2072105","BPS Bid Tiarma Siburian","2172","Kota Tanjung Pinang","21","8","Kep. Riau"
"H2072106","BP Rinosyah","2172","Kota Tanjung Pinang","21","8","Kep. Riau"
"H2072109","BPS Murni","2172","Kota Tanjung Pinang","21","8","Kep. Riau"
"H3302029","BP. Mtra Sehat","3302","Kab. Banyumas","33","8","Jawa Tengah"
"H3302030","BP. Bina Sehat","3302","Kab. Banyumas","33","8","Jawa Tengah"
"H3302031","BP Yos Sudarso","3302","Kab. Banyumas","33","8","Jawa Tengah"
"H3302033","BP Tanjung","3302","Kab. Banyumas","33","8","Jawa Tengah"
"H3302034","BP Adi Dharma","3302","Kab. Banyumas","33","8","Jawa Tengah"
"H3302036","BP Marchya Medika Abadi","3302","Kab. Banyumas","33","8","Jawa Tengah"
"H3302037","BP FATIMATUZZAHRO","3302","Kab. Banyumas","33","8","Jawa Tengah"
"H3302038","BP MUHAMADIYAH 2","3302","Kab. Banyumas","33","8","Jawa Tengah"
"H3302039","BP KALIMASADA","3302","Kab. Banyumas","33","8","Jawa Tengah"
"H3302040","BP. PMI","3302","Kab. Banyumas","33","8","Jawa Tengah"
"H3302041","BP MUHAMMADIYAH I","3302","Kab. Banyumas","33","8","Jawa Tengah"
"H3302043","BP BHAYANGKARA","3302","Kab. Banyumas","33","8","Jawa Tengah"
"H3302044","BP UNSOED","3302","Kab. Banyumas","33","8","Jawa Tengah"
"H3302045","BP AN-NUR","3302","Kab. Banyumas","33","8","Jawa Tengah"
"H3302046","BP ARDELIA","3302","Kab. Banyumas","33","8","Jawa Tengah"
"H3302047","BP PMI","3302","Kab. Banyumas","33","8","Jawa Tengah"
"H3302048","BP FAJAR SEHAT","3302","Kab. Banyumas","33","8","Jawa Tengah"
"H3302049","BP CITRA MEDIKA","3302","Kab. Banyumas","33","8","Jawa Tengah"
"H3302050","BP GRAND MEDICA","3302","Kab. Banyumas","33","8","Jawa Tengah"
"H3302051","BP KOTAYASA","3302","Kab. Banyumas","33","8","Jawa Tengah"
"H3302052","BP. DUKUH WALUH","3302","Kab. Banyumas","33","8","Jawa Tengah"
"H3302053","BP MANUNGGAL","3302","Kab. Banyumas","33","8","Jawa Tengah"
"H3302054","BP SILOAM MEDIKA","3302","Kab. Banyumas","33","8","Jawa Tengah"
"H3302055","BP MUTIARA ZHALZHA FAJAR","3302","Kab. Banyumas","33","8","Jawa Tengah"
"H3302056","BP MITRA HUSADA","3302","Kab. Banyumas","33","8","Jawa Tengah"
"H3302057","BP SAWANGAN ","3302","Kab. Banyumas","33","8","Jawa Tengah"
"H3303088","BP BOJONGSARI","3303","Kab. Purbalingga","33","8","Jawa Tengah"
"H3303093","DHARMA KASIH","3303","Kab. Purbalingga","33","8","Jawa Tengah"
"H3304009","BALAI PENGOBATAN","3304","Kab. Banjarnegara","33","8","Jawa Tengah"
"H3307101","BP. Winong Sari","3307","Kab. Wonosobo","33","8","Jawa Tengah"
"H3307103","BP/RB Siti Khotijah","3307","Kab. Wonosobo","33","8","Jawa Tengah"
"H3307105","BP TAMBI","3307","Kab. Wonosobo","33","8","Jawa Tengah"
"H3308056","BP Patal Secang","3308","Kab. Magelang","33","8","Jawa Tengah"
"H3308057","BP PT Djohar","3308","Kab. Magelang","33","8","Jawa Tengah"
"H3308058","BP Radia Medika","3308","Kab. Magelang","33","8","Jawa Tengah"
"H3308059","BP Al Amien PKU M Secang","3308","Kab. Magelang","33","8","Jawa Tengah"
"H3308060","BP Dwi Puspita","3308","Kab. Magelang","33","8","Jawa Tengah"
"H3308061","BP Mitra Sehat","3308","Kab. Magelang","33","8","Jawa Tengah"
"H3308063","BP AN Najeah Baitus Sichan","3308","Kab. Magelang","33","8","Jawa Tengah"
"H3308064","BP Mer-C","3308","Kab. Magelang","33","8","Jawa Tengah"
"H3308066","BP Al Ikhlas Borobudur","3308","Kab. Magelang","33","8","Jawa Tengah"
"H3308067","BP Muslimat NU","3308","Kab. Magelang","33","8","Jawa Tengah"
"H3308068","BP Yoga Darma","3308","Kab. Magelang","33","8","Jawa Tengah"
"H3308069","BP Puruhito Health Centre","3308","Kab. Magelang","33","8","Jawa Tengah"
"H3308070","BP ICB Salam","3308","Kab. Magelang","33","8","Jawa Tengah"
"H3308071","BP Siti Khadhijah","3308","Kab. Magelang","33","8","Jawa Tengah"
"H3308072","BP Gumuk Walik Medika","3308","Kab. Magelang","33","8","Jawa Tengah"
"H3308073","BP Uswatun Khasanah","3308","Kab. Magelang","33","8","Jawa Tengah"
"H3308074","BP Amanah","3308","Kab. Magelang","33","8","Jawa Tengah"
"H3308075","BP Aisyiyah Bandongan","3308","Kab. Magelang","33","8","Jawa Tengah"
"H3309005","BP ETIKA","3309","Kab. Boyolali","33","8","Jawa Tengah"
"H3309006","BP PKU Muhammadiyah Simo","3309","Kab. Boyolali","33","8","Jawa Tengah"
"H3309007","BP ASY SYIFAIYYAH","3309","Kab. Boyolali","33","8","Jawa Tengah"
"H3309008","BP MEDIKA","3309","Kab. Boyolali","33","8","Jawa Tengah"
"H3315003","BP WALISONGO BRATI","3315","Kab. Grobogan","33","8","Jawa Tengah"
"H3315004","BP SIMPANG LIMA HUSADA PURWODADI","3315","Kab. Grobogan","33","8","Jawa Tengah"
"H3315005","BP HARAPAN KITA SEDADI","3315","Kab. Grobogan","33","8","Jawa Tengah"
"H3315006","BP MARDI LESTARI WIROSARI","3315","Kab. Grobogan","33","8","Jawa Tengah"
"H3315007","BP LEMBAGA PUTRI ASIH TWHARJO","3315","Kab. Grobogan","33","8","Jawa Tengah"
"H3316002"," BP Mediska Cepu","3316","Kab. Blora","33","8","Jawa Tengah"
"H3316003"," BP/RB Bagas Cepu","3316","Kab. Blora","33","8","Jawa Tengah"
"H3316004"," BP NU Cepu","3316","Kab. Blora","33","8","Jawa Tengah"
"H3316006"," BP/RB Keluarga Randublatung","3316","Kab. Blora","33","8","Jawa Tengah"
"H3316007"," BP PKU Muh Kunduran","3316","Kab. Blora","33","8","Jawa Tengah"
"H3316008"," BP/RB Kasih Ibu Kunduran","3316","Kab. Blora","33","8","Jawa Tengah"
"H3316009"," BP/RB Tali Kasih Jepon","3316","Kab. Blora","33","8","Jawa Tengah"
"H3316010"," BP/RB Pancasila Randublatung","3316","Kab. Blora","33","8","Jawa Tengah"
"H3316011"," BP. Mulia Husada Blora","3316","Kab. Blora","33","8","Jawa Tengah"
"H3316013"," BP/RB PKU Muh Randublatung","3316","Kab. Blora","33","8","Jawa Tengah"
"H3316015"," BP Pertamina Cepu","3316","Kab. Blora","33","8","Jawa Tengah"
"H3317005","BP Panti Bahagia","3317","Kab. Rembang","33","8","Jawa Tengah"
"H3317006","BP Nususyifa","3317","Kab. Rembang","33","8","Jawa Tengah"
"H3318005","BP ASRINA","3318","Kab. Pati","33","8","Jawa Tengah"
"H3319001","BP Sukun Group","3319","Kab. Kudus","33","8","Jawa Tengah"
"H3319002","BP Bina Sehat 1","3319","Kab. Kudus","33","8","Jawa Tengah"
"H3319003","BP Bina Sehat 3","3319","Kab. Kudus","33","8","Jawa Tengah"
"H3319004","BP Asy Syifa","3319","Kab. Kudus","33","8","Jawa Tengah"
"H3319005","BP Prambatan Sehat","3319","Kab. Kudus","33","8","Jawa Tengah"
"H3319006","BP BKKRK","3319","Kab. Kudus","33","8","Jawa Tengah"
"H3319008","BP Pura Kawasan II","3319","Kab. Kudus","33","8","Jawa Tengah"
"H3319009","BP Pura Kawasan IV","3319","Kab. Kudus","33","8","Jawa Tengah"
"H3319010","BP Pura Kawasan V","3319","Kab. Kudus","33","8","Jawa Tengah"
"H3319011","BP PG Rendeng","3319","Kab. Kudus","33","8","Jawa Tengah"
"H3319012","BP Mardi Waluyo","3319","Kab. Kudus","33","8","Jawa Tengah"
"H3319013","BP Elim","3319","Kab. Kudus","33","8","Jawa Tengah"
"H3319014","BP Mardi Utama","3319","Kab. Kudus","33","8","Jawa Tengah"
"H3319015","BP Haji.Djalal","3319","Kab. Kudus","33","8","Jawa Tengah"
"H3319016","BP Al Fatah","3319","Kab. Kudus","33","8","Jawa Tengah"
"H3319017","BP Miriam","3319","Kab. Kudus","33","8","Jawa Tengah"
"H3319018","BP Masyithoh","3319","Kab. Kudus","33","8","Jawa Tengah"
"H3319019","BP Humanika","3319","Kab. Kudus","33","8","Jawa Tengah"
"H3319020","BP Salma Medika","3319","Kab. Kudus","33","8","Jawa Tengah"
"H3319021","BP Kusuma Medika","3319","Kab. Kudus","33","8","Jawa Tengah"
"H3321012","BP. Gading Medika","3321","Kab. Demak","33","8","Jawa Tengah"
"H3321013","BP. Sultan Agung","3321","Kab. Demak","33","8","Jawa Tengah"
"H3321014","BP. Saras","3321","Kab. Demak","33","8","Jawa Tengah"
"H3321015","BP. NU-MWC Mranggen","3321","Kab. Demak","33","8","Jawa Tengah"
"H3321016","BP. Nur Istiqomah","3321","Kab. Demak","33","8","Jawa Tengah"
"H3321017","BP. Sayung Husada","3321","Kab. Demak","33","8","Jawa Tengah"
"H3321018","BP. Jamsostek Demak","3321","Kab. Demak","33","8","Jawa Tengah"
"H3321019","BP. Nayaka Era Husada ","3321","Kab. Demak","33","8","Jawa Tengah"
"H3321020","BP. Setia Husada","3321","Kab. Demak","33","8","Jawa Tengah"
"H3321021","BP. Darusy Syifa","3321","Kab. Demak","33","8","Jawa Tengah"
"H3321022","BP. Az Zahro","3321","Kab. Demak","33","8","Jawa Tengah"
"H3321023","BP. Sami Waras","3321","Kab. Demak","33","8","Jawa Tengah"
"H3321025","BP. Sinar Plataco","3321","Kab. Demak","33","8","Jawa Tengah"
"H3321026","BP. YKWP XI","3321","Kab. Demak","33","8","Jawa Tengah"
"H3321027","BP. An - Nur","3321","Kab. Demak","33","8","Jawa Tengah"
"H3321028","BP. Surya Medika Karangawen","3321","Kab. Demak","33","8","Jawa Tengah"
"H3321029","BP. YKWP Karang Tengah","3321","Kab. Demak","33","8","Jawa Tengah"
"H3321030","BP. YKWP IV Mranggen","3321","Kab. Demak","33","8","Jawa Tengah"
"H3321031","BP. YKWP XII","3321","Kab. Demak","33","8","Jawa Tengah"
"H3321032","BP. As-Syifa","3321","Kab. Demak","33","8","Jawa Tengah"
"H3321033","BP. Mitra Sehat","3321","Kab. Demak","33","8","Jawa Tengah"
"H3321034","BP. YKWK III","3321","Kab. Demak","33","8","Jawa Tengah"
"H3321035","BP. Harapan Bunda","3321","Kab. Demak","33","8","Jawa Tengah"
"H3321036","BP. Al Faraq","3321","Kab. Demak","33","8","Jawa Tengah"
"H3321037","BP. Narwastu","3321","Kab. Demak","33","8","Jawa Tengah"
"H3321038","BP. Slamet","3321","Kab. Demak","33","8","Jawa Tengah"
"H3321039","BP. Permata Hati","3321","Kab. Demak","33","8","Jawa Tengah"
"H3321040","BP. Darussalam Muhamadiyah","3321","Kab. Demak","33","8","Jawa Tengah"
"H3321041","BP. YKWP XIII","3321","Kab. Demak","33","8","Jawa Tengah"
"H3321042","BP. Giri Kesumo","3321","Kab. Demak","33","8","Jawa Tengah"
"H3321043","BP. Sehat","3321","Kab. Demak","33","8","Jawa Tengah"
"H3321044","BP. Nayaka Husada IV","3321","Kab. Demak","33","8","Jawa Tengah"
"H3321045","BP. Nayaka HusadaV","3321","Kab. Demak","33","8","Jawa Tengah"
"H3321046","BP. Dwi Puspita","3321","Kab. Demak","33","8","Jawa Tengah"
"H3321047","BP. Kita","3321","Kab. Demak","33","8","Jawa Tengah"
"H3321048","BP. Kawan Sejati","3321","Kab. Demak","33","8","Jawa Tengah"
"H3323002","BP Pancasila","3323","Kab. Temanggung","33","8","Jawa Tengah"
"H3323003","BP Aviel Parakan","3323","Kab. Temanggung","33","8","Jawa Tengah"
"H3323004","BP Mitra Keluarga","3323","Kab. Temanggung","33","8","Jawa Tengah"
"H3323006","BP PMI Cab. Temanggung","3323","Kab. Temanggung","33","8","Jawa Tengah"
"H3323008","BP Adi Husada","3323","Kab. Temanggung","33","8","Jawa Tengah"
"H3323009","BP KARYA HUSADA","3323","Kab. Temanggung","33","8","Jawa Tengah"
"H3323010","BP Fatima","3323","Kab. Temanggung","33","8","Jawa Tengah"
"H3323012","BP Brastomolo","3323","Kab. Temanggung","33","8","Jawa Tengah"
"H3323013","BP Nindra Medika","3323","Kab. Temanggung","33","8","Jawa Tengah"
"H3323014","BP Kasih","3323","Kab. Temanggung","33","8","Jawa Tengah"
"H3323015","BP Darul Hadlonah","3323","Kab. Temanggung","33","8","Jawa Tengah"
"H3323016","BP Al-Kautsar","3323","Kab. Temanggung","33","8","Jawa Tengah"
"H3327006","BP Pemda","3327","Kab. Pemalang","33","8","Jawa Tengah"
"H3327008","BP Detasemen Kesehatan KODIM","3327","Kab. Pemalang","33","8","Jawa Tengah"
"H3329002","Balai Pengobatan dan Rumah Bersalin","3329","Kab. Brebes","33","8","Jawa Tengah"
"H3372107","BP & RB Al Firdaus","3372","Kota Surakarta","33","8","Jawa Tengah"
"H3372109","BP UNS Medical Center","3372","Kota Surakarta","33","8","Jawa Tengah"
"H3372110","BP Gotong Royong","3372","Kota Surakarta","33","8","Jawa Tengah"
"H3372111","BP Jati Margo","3372","Kota Surakarta","33","8","Jawa Tengah"
"H3372114","PKU Muhammadiyah Solo Utara","3372","Kota Surakarta","33","8","Jawa Tengah"
"H3372115","BP PMS Surakarta","3372","Kota Surakarta","33","8","Jawa Tengah"
"H3372116","BP Penumping","3372","Kota Surakarta","33","8","Jawa Tengah"
"H3372118","BP & Apotek Nurwina","3372","Kota Surakarta","33","8","Jawa Tengah"
"H3372119","BP Demangan Sehat","3372","Kota Surakarta","33","8","Jawa Tengah"
"H3372121","BP Husada","3372","Kota Surakarta","33","8","Jawa Tengah"
"H3372122","BP Brastomolo","3372","Kota Surakarta","33","8","Jawa Tengah"
"H3372133","BP/RB Annisa Husada","3372","Kota Surakarta","33","8","Jawa Tengah"
"H3372198","BP Sherly Indratno & ADC","3372","Kota Surakarta","33","8","Jawa Tengah"
"H3372200","BP Betesda","3372","Kota Surakarta","33","8","Jawa Tengah"
"H3372202","BP Budi Peni Surakarta","3372","Kota Surakarta","33","8","Jawa Tengah"
"H3372219","BP Nabur Tresno","3372","Kota Surakarta","33","8","Jawa Tengah"
"H3372257","BP Gigi UKGS YP Warga","3372","Kota Surakarta","33","8","Jawa Tengah"
"H3372258","BPG Mecadita","3372","Kota Surakarta","33","8","Jawa Tengah"
"H3372259","BP Bhakti Sehat","3372","Kota Surakarta","33","8","Jawa Tengah"
"H3372260","BP Cita Medika Husada","3372","Kota Surakarta","33","8","Jawa Tengah"
"H3372262","BP Vivo Dental Klinik","3372","Kota Surakarta","33","8","Jawa Tengah"
"H3373003","BP SYIFA HUSADA","3373","Kota Salatiga","33","8","Jawa Tengah"
"H3373005","BP ELIM","3373","Kota Salatiga","33","8","Jawa Tengah"
"H3376160","BP Sentra Medika","3376","Kota Tegal","33","8","Jawa Tengah"
"H3376161","BP Mitra Medika","3376","Kota Tegal","33","8","Jawa Tengah"
"H3376162","BP Dr. Diana","3376","Kota Tegal","33","8","Jawa Tengah"
"H3376163","BP Dr. Esis","3376","Kota Tegal","33","8","Jawa Tengah"
"H3376164","BP Dr. Nurbaiti","3376","Kota Tegal","33","8","Jawa Tengah"
"H3376165","BP Dr. Endang II","3376","Kota Tegal","33","8","Jawa Tengah"
"H3376166","BP Marinan","3376","Kota Tegal","33","8","Jawa Tengah"
"H3376167","BP Perintis","3376","Kota Tegal","33","8","Jawa Tengah"
"H3376168","BP Sentanan Medika","3376","Kota Tegal","33","8","Jawa Tengah"
"H3376169","BP Medika","3376","Kota Tegal","33","8","Jawa Tengah"
"H3376170","BP Aisiyah","3376","Kota Tegal","33","8","Jawa Tengah"
"H3376172","BP Asy Syifa Plus","3376","Kota Tegal","33","8","Jawa Tengah"
"H3376174","BP Fx. Hermanto","3376","Kota Tegal","33","8","Jawa Tengah"
"H3376175","BP Dr. Alfiyanto Bittie","3376","Kota Tegal","33","8","Jawa Tengah"
"H3376176","BP Sumber Waras Jaya","3376","Kota Tegal","33","8","Jawa Tengah"
"H3376177","BP Diklat Transportasi Darat","3376","Kota Tegal","33","8","Jawa Tengah"
"H3376178","BP Grup Teteco","3376","Kota Tegal","33","8","Jawa Tengah"
"H3376185","BP POLRI","3376","Kota Tegal","33","8","Jawa Tengah"
"H3376186","BP Jasa Putra","3376","Kota Tegal","33","8","Jawa Tengah"
"H3376187","BP Tri Dharma","3376","Kota Tegal","33","8","Jawa Tengah"
"H3376188","BP Ibu Sulastri","3376","Kota Tegal","33","8","Jawa Tengah"
"H3376189","BP Dr. Endang I","3376","Kota Tegal","33","8","Jawa Tengah"
"H3376190","BP Santo Yosef","3376","Kota Tegal","33","8","Jawa Tengah"
"H3376192","BP PP","3376","Kota Tegal","33","8","Jawa Tengah"
"H3376193","BP Permata","3376","Kota Tegal","33","8","Jawa Tengah"
"H3376195","BP Bina Sehat","3376","Kota Tegal","33","8","Jawa Tengah"
"H3376197","BP Sumber Waras","3376","Kota Tegal","33","8","Jawa Tengah"
"H3376198","BP Pepabri Tadjri","3376","Kota Tegal","33","8","Jawa Tengah"
"H3376199","BP Sumber Sehat","3376","Kota Tegal","33","8","Jawa Tengah"
"H3376200","BP Amanah","3376","Kota Tegal","33","8","Jawa Tengah"
"H3401101","BP/RB Citra Paramedika","3401","Kab. Kulon Progo","34","8","DI Jogja2"
"H3401102","BP/RB Pura Raharja","3401","Kab. Kulon Progo","34","8","DI Jogja2"
"H3401103","BP/RB Siti Chodijah","3401","Kab. Kulon Progo","34","8","DI Jogja2"
"H3401104","BP/RB PKU Muh Galur","3401","Kab. Kulon Progo","34","8","DI Jogja2"
"H3401105","BP/RB Maranatha Nanggulan","3401","Kab. Kulon Progo","34","8","DI Jogja2"
"H3401106","BP/RB Permata Hijau","3401","Kab. Kulon Progo","34","8","DI Jogja2"
"H3401107","BP 4 Wates","3401","Kab. Kulon Progo","34","8","DI Jogja2"
"H3401108","BP Karya Mulia","3401","Kab. Kulon Progo","34","8","DI Jogja2"
"H3402101"," Bina Sehat","3402","Kab. Bantul","34","8","DI Jogja2"
"H3402102"," Mitra Husada","3402","Kab. Bantul","34","8","DI Jogja2"
"H3402104"," Kalimasada","3402","Kab. Bantul","34","8","DI Jogja2"
"H3402106","Amalia","3402","Kab. Bantul","34","8","DI Jogja2"
"H3402118","An Nisa","3402","Kab. Bantul","34","8","DI Jogja2"
"H3402125"," Puri Adisty Tiga","3402","Kab. Bantul","34","8","DI Jogja2"
"H3402129"," Pelita Husada Bakti","3402","Kab. Bantul","34","8","DI Jogja2"
"H3402130"," Samitex","3402","Kab. Bantul","34","8","DI Jogja2"
"H3402132"," Harapan Sehat","3402","Kab. Bantul","34","8","DI Jogja2"
"H3402142","Amanah","3402","Kab. Bantul","34","8","DI Jogja2"
"H3402150","Annisa Medika","3402","Kab. Bantul","34","8","DI Jogja2"
"H3402159"," As Syifa","3402","Kab. Bantul","34","8","DI Jogja2"
"H3402167","Alifia","3402","Kab. Bantul","34","8","DI Jogja2"
"H3402172","Adinda","3402","Kab. Bantul","34","8","DI Jogja2"
"H3402401","Abi Farma","3402","Kab. Bantul","34","8","DI Jogja2"
"H3402407"," Amanah","3402","Kab. Bantul","34","8","DI Jogja2"
"H3402452","Afi Farma","3402","Kab. Bantul","34","8","DI Jogja2"
"H3402455","Anggita Farma","3402","Kab. Bantul","34","8","DI Jogja2"
"H3402480","Adna Farma","3402","Kab. Bantul","34","8","DI Jogja2"
"H3403101","BP Ridlo Darmo","3403","Kab. Gunung Kidul","34","8","DI Jogja2"
"H3403102","BP Atmo Husada","3403","Kab. Gunung Kidul","34","8","DI Jogja2"
"H3403103","BP Eli","3403","Kab. Gunung Kidul","34","8","DI Jogja2"
"H3403104","BP Alipan","3403","Kab. Gunung Kidul","34","8","DI Jogja2"
"H3403105","BP Mitra Sehat","3403","Kab. Gunung Kidul","34","8","DI Jogja2"
"H3403106","BP Dian Husada","3403","Kab. Gunung Kidul","34","8","DI Jogja2"
"H3403107","BP Ngudi Waras","3403","Kab. Gunung Kidul","34","8","DI Jogja2"
"H3403108","BP Surya Husada","3403","Kab. Gunung Kidul","34","8","DI Jogja2"
"H3403109","BP Dadi Husada","3403","Kab. Gunung Kidul","34","8","DI Jogja2"
"H3403110","BP Arohmah","3403","Kab. Gunung Kidul","34","8","DI Jogja2"
"H3403111","BP Amanah Husada","3403","Kab. Gunung Kidul","34","8","DI Jogja2"
"H3403112","BP Wahyu Husada","3403","Kab. Gunung Kidul","34","8","DI Jogja2"
"H3403113","BP Enggal Saras","3403","Kab. Gunung Kidul","34","8","DI Jogja2"
"H3403114","BP Mitra Sejahtera","3403","Kab. Gunung Kidul","34","8","DI Jogja2"
"H3403115","BP Sumber Waluyo","3403","Kab. Gunung Kidul","34","8","DI Jogja2"
"H3403117","BP Hikmah Husada","3403","Kab. Gunung Kidul","34","8","DI Jogja2"
"H3403118","BP Bakti Asih","3403","Kab. Gunung Kidul","34","8","DI Jogja2"
"H3403119","BP Panti Husada","3403","Kab. Gunung Kidul","34","8","DI Jogja2"
"H3403120","BP Al Amin","3403","Kab. Gunung Kidul","34","8","DI Jogja2"
"H3403121","BP Permata Dinda","3403","Kab. Gunung Kidul","34","8","DI Jogja2"
"H3403122","BP Kinanti","3403","Kab. Gunung Kidul","34","8","DI Jogja2"
"H3403123","BP Bintang Medika","3403","Kab. Gunung Kidul","34","8","DI Jogja2"
"H3403124","BP Purwa Husada","3403","Kab. Gunung Kidul","34","8","DI Jogja2"
"H3403125","BP Kusuma Persada","3403","Kab. Gunung Kidul","34","8","DI Jogja2"
"H3403126","BP Alhidayah","3403","Kab. Gunung Kidul","34","8","DI Jogja2"
"H3403127","BP Medika Husada","3403","Kab. Gunung Kidul","34","8","DI Jogja2"
"H3403128","BP Aisiyah","3403","Kab. Gunung Kidul","34","8","DI Jogja2"
"H3403129","BP Waris Songo","3403","Kab. Gunung Kidul","34","8","DI Jogja2"
"H3403130","BP Mitra Husada","3403","Kab. Gunung Kidul","34","8","DI Jogja2"
"H3403131","BP Sarana Husada","3403","Kab. Gunung Kidul","34","8","DI Jogja2"
"H3403132","BP Griya Husada","3403","Kab. Gunung Kidul","34","8","DI Jogja2"
"H3403133","BP Cipta Husada","3403","Kab. Gunung Kidul","34","8","DI Jogja2"
"H3403134","BP Do'a Husada","3403","Kab. Gunung Kidul","34","8","DI Jogja2"
"H3403135","BP Dewoto Husada","3403","Kab. Gunung Kidul","34","8","DI Jogja2"
"H3403136","BP Fortuna Husada","3403","Kab. Gunung Kidul","34","8","DI Jogja2"
"H3403137","BP Assalam","3403","Kab. Gunung Kidul","34","8","DI Jogja2"
"H3403138","BP Mers","3403","Kab. Gunung Kidul","34","8","DI Jogja2"
"H3403139","BP Adi Medika","3403","Kab. Gunung Kidul","34","8","DI Jogja2"
"H3403140","BP Sahabat Keluarga","3403","Kab. Gunung Kidul","34","8","DI Jogja2"
"H3403141","BP Assyfa","3403","Kab. Gunung Kidul","34","8","DI Jogja2"
"H3403142","BP Sinar Husada","3403","Kab. Gunung Kidul","34","8","DI Jogja2"
"H3403143","BP Prima Sehat","3403","Kab. Gunung Kidul","34","8","DI Jogja2"
"H3403144","BP Purbo Husada","3403","Kab. Gunung Kidul","34","8","DI Jogja2"
"H3471101","Happy Land Medical Center","3471","Kota Yogyakarta","34","8","DI Jogja2"
"H3471102","Balai Pengobatan LPM Pelita Kasih","3471","Kota Yogyakarta","34","8","DI Jogja2"
"H3471103","Balai Pengobatan Kedaulatan Rakyat","3471","Kota Yogyakarta","34","8","DI Jogja2"
"H3471104","Balai Pengobatan PDAM Tirtamarta","3471","Kota Yogyakarta","34","8","DI Jogja2"
"H3471105","Balai Pengobatan Lanal","3471","Kota Yogyakarta","34","8","DI Jogja2"
"H3471106","Balai Pengobatan Intan","3471","Kota Yogyakarta","34","8","DI Jogja2"
"H3471107","Balai Pengobatan Gading","3471","Kota Yogyakarta","34","8","DI Jogja2"
"H3471108","Balai Pengobatan Istana Merdeka","3471","Kota Yogyakarta","34","8","DI Jogja2"
"H3471109","Balai Pengobatan Kantor Pos Pusat","3471","Kota Yogyakarta","34","8","DI Jogja2"
"H3471110","Balai Pengobatan B K I A Kantor Pos Pusat","3471","Kota Yogyakarta","34","8","DI Jogja2"
"H3471111","Balai Pengobatan PMI Kota Yogyakarta","3471","Kota Yogyakarta","34","8","DI Jogja2"
"H3471112","Balai Pengobatan Mitra Medika","3471","Kota Yogyakarta","34","8","DI Jogja2"
"H3471113","Balai Pengobatan Ramadhan","3471","Kota Yogyakarta","34","8","DI Jogja2"
"H3471114","Balai Pengobatan BKM Pondok Krapyak","3471","Kota Yogyakarta","34","8","DI Jogja2"
"H3471115","Balai Pengobatan Pertamina","3471","Kota Yogyakarta","34","8","DI Jogja2"
"H3471116","Balai Pengobatan UST Medikal Center","3471","Kota Yogyakarta","34","8","DI Jogja2"
"H3471117","Balai Pengobatan Sari Husada","3471","Kota Yogyakarta","34","8","DI Jogja2"
"H3471118","Balai Pengobatan Sang Timur","3471","Kota Yogyakarta","34","8","DI Jogja2"
"H3506020","BP/ RB Ahlu Rahma- Wates","3506","Kab. Kediri","35","8","Jawa Timur"
"H3506021","BP/ RB Kusuma- Ngancar","3506","Kab. Kediri","35","8","Jawa Timur"
"H3506022","BP Ratna- Kandangan","3506","Kab. Kediri","35","8","Jawa Timur"
"H3506023","BP/ RB Muhammadiyah Kanigoro- Kras","3506","Kab. Kediri","35","8","Jawa Timur"
"H3506024","BP/ RB RSI Jimbun- Kandat","3506","Kab. Kediri","35","8","Jawa Timur"
"H3506025","BP/ RB Wahyu Husada- Gurah","3506","Kab. Kediri","35","8","Jawa Timur"
"H3506026","BP/ RB Permata Hati- Pare","3506","Kab. Kediri","35","8","Jawa Timur"
"H3506027","BP/ RB Wilujeng- Kayen Kidul","3506","Kab. Kediri","35","8","Jawa Timur"
"H3506028","BP/ RB Siti Fatimah- Pare","3506","Kab. Kediri","35","8","Jawa Timur"
"H3506029","BP Bhayangkara- Pare","3506","Kab. Kediri","35","8","Jawa Timur"
"H3506030","BP Mardi Rahayu- Ngancar","3506","Kab. Kediri","35","8","Jawa Timur"
"H3506031","BP Ngrangkah Sepawon- Plosoklaten","3506","Kab. Kediri","35","8","Jawa Timur"
"H3506032","BP/ RB Panca Husada Satata- Kras","3506","Kab. Kediri","35","8","Jawa Timur"
"H3506033","BP Ngadirejo- Kras","3506","Kab. Kediri","35","8","Jawa Timur"
"H3506035","BP & RB Vita Medika- Kepung","3506","Kab. Kediri","35","8","Jawa Timur"
"H3506036","BP/ RB Mitra Waluya- Pare","3506","Kab. Kediri","35","8","Jawa Timur"
"H3506037","BP Karya Husada- Kepung","3506","Kab. Kediri","35","8","Jawa Timur"
"H3506038","BP Puri Husada- Tarokan","3506","Kab. Kediri","35","8","Jawa Timur"
"H3506040","BP Mitra Husada I - Pare","3506","Kab. Kediri","35","8","Jawa Timur"
"H3506041","BP/ RB Kusuma Pertiwi- Kepung","3506","Kab. Kediri","35","8","Jawa Timur"
"H3506042","BP/ RB Mugi Saras- Plemahan","3506","Kab. Kediri","35","8","Jawa Timur"
"H3506043","BP/ RB Griya Medika- Kunjang","3506","Kab. Kediri","35","8","Jawa Timur"
"H3506044","BP/ RB Asyifa- Ringinrejo","3506","Kab. Kediri","35","8","Jawa Timur"
"H3506045","BP Rahardja Medika- Grogol","3506","Kab. Kediri","35","8","Jawa Timur"
"H3506046","BP/ RB Mutiara Gading- Plosoklaten","3506","Kab. Kediri","35","8","Jawa Timur"
"H3506047","BP/ RB Prisdy- Wates","3506","Kab. Kediri","35","8","Jawa Timur"
"H3506048","BP Hikmah Medika- Pare","3506","Kab. Kediri","35","8","Jawa Timur"
"H3519340","BP / BKIA ARGOSARI","3519","Kab. Madiun","35","8","Jawa Timur"
"H3519341","BP / PG PAGOTAN","3519","Kab. Madiun","35","8","Jawa Timur"
"H3519342","BP WAHYU HUSADA","3519","Kab. Madiun","35","8","Jawa Timur"
"H3519343","BP MAYA HUSADA","3519","Kab. Madiun","35","8","Jawa Timur"
"H3519344","BP / RB YEPA HUSADA","3519","Kab. Madiun","35","8","Jawa Timur"
"H3519345","BP / RB AFIKA","3519","Kab. Madiun","35","8","Jawa Timur"
"H3519346","BP ALMABRUR","3519","Kab. Madiun","35","8","Jawa Timur"
"H3575002","BP KEBONAGUNG","3575","Kota Pasuruan","35","8","Jawa Timur"
"H3604020","BP Sanjaya ","3604","Kab. Serang","36","8","Banten"
"H3673013","BPS UNTIRTA SULTAN AGENG TIRTAYASA","3673","Kota Serang","36","8","Banten"
"H5201104","BALAI PENGOMATAN AZMI","5201","Kab. Lombok Barat","52","8","Nusa Tenggara Barat"
"H5201105","BALAI PENGOBATAN KRESHNA HUSADA","5201","Kab. Lombok Barat","52","8","Nusa Tenggara Barat"
"H5271001","BP. TNI AL Mataram","5271","Kota Mataram","52","8","Nusa Tenggara Barat"
"H5271002","BP. TNI AU Mataram","5271","Kota Mataram","52","8","Nusa Tenggara Barat"
"H7271103","Balai Pengobatan Oke Peduli Bangsa","7271","Kota Palu","72","8","Sulawesi Tengah"
"H8171001","Balai Kesehatan Paru Masyarakat Maluku","8171","Kota Ambon","81","8","Maluku"
"H9471012 ","Balai Pengobatan Karya Kasih Jayapura ","9471","Kota Jayapura","94","8","Papua "
