"Username","labkes","Kode Kabupaten","Nama Kabupaten","Kode Provinsi","ref_jenis_faskes_kode","Nama Provinsi"
"M1100","LAB. KES DAERAH PROVINSI ACEH","1100",NULL,"11","10","Aceh"
"M1101","LAB. KES DAERAH KAB. SIMEULUE","1101","Kab. Simeulue","11","10","Aceh"
"M1102","LAB. KES DAERAH KAB. ACEH SINGKIL","1102","Kab. Aceh Singkil","11","10","Aceh"
"M1103","LAB. KES DAERAH KAB. ACEH SELATAN","1103","Kab. Aceh Selatan","11","10","Aceh"
"M1104","LAB. KES DAERAH KAB. ACEH TENGGARA","1104","Kab. Aceh Tenggara","11","10","Aceh"
"M1105","LAB. KES DAERAH KAB. ACEH TIMUR","1105","Kab. Aceh Timur","11","10","Aceh"
"M1106","LAB. KES DAERAH KAB. ACEH TENGAH","1106","Kab. Aceh Tengah","11","10","Aceh"
"M1107","LAB. KES DAERAH KAB. ACEH BARAT","1107","Kab. Aceh Barat","11","10","Aceh"
"M1307T","labkes contoh 2","1107","Kab. Aceh Barat","11","10","Aceh"
"M1108","LAB. KES DAERAH KAB. ACEH BESAR","1108","Kab. Aceh Besar","11","10","Aceh"
"M1109","LAB. KES DAERAH KAB. PIDIE","1109","Kab. Pidie","11","10","Aceh"
"M1110","LAB. KES DAERAH KAB. BIREUEN","1110","Kab. Bireuen","11","10","Aceh"
"M1111","LAB. KES DAERAH KAB. ACEH UTARA","1111","Kab. Aceh Utara","11","10","Aceh"
"M1112","LAB. KES DAERAH KAB. ACEH BARAT DAYA","1112","Kab. Aceh Barat Daya","11","10","Aceh"
"M1113","LAB. KES DAERAH KAB. GAYO LUES","1113","Kab. Gayo Lues","11","10","Aceh"
"M1114","LAB. KES DAERAH KAB. ACEH TAMIANG","1114","Kab. Aceh Tamiang","11","10","Aceh"
"M1115","LAB. KES DAERAH KAB. NAGAN RAYA","1115","Kab. Nagan Raya","11","10","Aceh"
"M1116","LAB. KES DAERAH KAB. ACEH JAYA","1116","Kab. Aceh Jaya","11","10","Aceh"
"M1117","LAB. KES DAERAH KAB. BENER MERIAH","1117","Kab. Bener Meriah","11","10","Aceh"
"M1118","LAB. KES DAERAH KAB. PIDIE JAYA","1118","Kab. Pidie Jaya","11","10","Aceh"
"M1171","LAB. KES DAERAH KOTA BANDA ACEH","1171","Kota Banda Aceh","11","10","Aceh"
"M1172","LAB. KES DAERAH KOTA SABANG","1172","Kota Sabang","11","10","Aceh"
"M1173","LAB. KES DAERAH KOTA LANGSA","1173","Kota Langsa","11","10","Aceh"
"M1174","LAB. KES DAERAH KOTA LHOKSEUMAWE","1174","Kota Lhoksumawe","11","10","Aceh"
"M1175","LAB. KES DAERAH KOTA SUBULUSSALAM","1175","Kota Subulussalam","11","10","Aceh"
"M1200","LAB. KES DAERAH PROVINSI SUMATERA UTARA","1200",NULL,"12","10","Sumatera Utara"
"M1201","LAB. KES DAERAH KAB. NIAS","1201","Kabupaten Nias","12","10","Sumatera Utara"
"M1202","LAB. KES DAERAH KAB. MANDAILING NATAL","1202","Kabupaten Mandailing Natal","12","10","Sumatera Utara"
"M1203","LAB. KES DAERAH KAB. TAPANULI SELATAN","1203","Kab. Tapanuli Selatan","12","10","Sumatera Utara"
"M1204","LAB. KES DAERAH KAB. TAPANULI TENGAH","1204","Kab. Tapanuli Tengah","12","10","Sumatera Utara"
"M1205","LAB. KES DAERAH KAB. TAPANULI UTARA","1205","Kab. Tapanuli Utara","12","10","Sumatera Utara"
"M1206","LAB. KES DAERAH KAB. TOBA SAMOSIR","1206","Kab. Toba Samosir","12","10","Sumatera Utara"
"M1207","LAB. KES DAERAH KAB. LABUHAN BATU","1207","Kab. Labuhan Batu","12","10","Sumatera Utara"
"M1208","LAB. KES DAERAH KAB. 1208","1208","Kab. Asahan","12","10","Sumatera Utara"
"M1209","LAB. KES DAERAH KAB. SIMALUNGUN","1209","Kab. Simalungun","12","10","Sumatera Utara"
"M1210","LAB. KES DAERAH KAB. DAIRI","1210","Kab. Dairi","12","10","Sumatera Utara"
"M1211","LAB. KES DAERAH KAB. KARO","1211","Kab. Karo","12","10","Sumatera Utara"
"M1212","LAB. KES DAERAH KAB. DELI SERDANG","1212","Kab. Deli Serdang","12","10","Sumatera Utara"
"M1213","LAB. KES DAERAH KAB. LANGKAT","1213","Kab. Langkat","12","10","Sumatera Utara"
"M1214","LAB. KES DAERAH KAB. NIAS SELATAN","1214","Kab. Nias Selatan","12","10","Sumatera Utara"
"M1215","LAB. KES DAERAH KAB. HUMBANG HASUNDUTAN","1215","Kab. Humbang Hasundutan","12","10","Sumatera Utara"
"M1216","LAB. KES DAERAH KAB. PAKPAK BHARAT","1216","Kab. Pakpak Bharat","12","10","Sumatera Utara"
"M1217","LAB. KES DAERAH KAB. SAMOSIR","1217","Kab. Samosir","12","10","Sumatera Utara"
"M1218","LAB. KES DAERAH KAB. SERDANG BEDAGAI","1218","Kab. Serdang Bedagai","12","10","Sumatera Utara"
"M1219","LAB. KES DAERAH KAB. BATU BARA","1219","Kab. Batu Bara","12","10","Sumatera Utara"
"M1220","LAB. KES DAERAH KAB. PADANG LAWAS UTARA","1220","Kab. Padang Lawas Utara","12","10","Sumatera Utara"
"M1221","LAB. KES DAERAH KAB. PADANG LAWAS","1221","Kab. Padang Lawas ","12","10","Sumatera Utara"
"M1222","LAB. KES DAERAH KAB. LABUHAN BATU SELATAN","1222","Kab. Labuhan Batu Selatan","12","10","Sumatera Utara"
"M1223","LAB. KES DAERAH KAB. LABUHAN BATU UTARA","1223","Kab. Labuhan Batu Utara","12","10","Sumatera Utara"
"M1224","LAB. KES DAERAH KAB. NIAS UTARA","1224","Kab. Nias Utara","12","10","Sumatera Utara"
"M1225","LAB. KES DAERAH KAB. NIAS BARAT","1225","Kab. Nias Barat","12","10","Sumatera Utara"
"M1271","LAB. KES DAERAH KOTA SIBOLGA","1271","Kota Sibolga","12","10","Sumatera Utara"
"M1272","LAB. KES DAERAH KOTA TANJUNG BALAI","1272","Kota Tanjung Balai","12","10","Sumatera Utara"
"M1273","LAB. KES DAERAH KOTA PEMATANG SIANTAR","1273","Kota Pematang Siantar","12","10","Sumatera Utara"
"M1274","LAB. KES DAERAH KOTA TEBING TINGGI","1274","Kota Tebing Tinggi","12","10","Sumatera Utara"
"M1275","LAB. KES DAERAH KOTA MEDAN","1275","Kota Medan","12","10","Sumatera Utara"
"M1276","LAB. KES DAERAH KOTA BINJAI","1276","Kota Binjai","12","10","Sumatera Utara"
"M1277","LAB. KES DAERAH KOTA PADANG SIDEMPUAN","1277","Kota Padang Sidempuan","12","10","Sumatera Utara"
"M1278","LAB. KES DAERAH KOTA GUNUNGSITOLI","1278","Kota Gunung Sitoli","12","10","Sumatera Utara"
"M1300","LAB. KES DAERAH PROVINSI SUMATERA BARAT","1300",NULL,"13","10","Sumatera Barat"
"M1301","LAB. KES DAERAH KAB. KEPULAUAN MENTAWAI","1301","Kab. Kep. Mentawai","13","10","Sumatera Barat"
"M1302","LAB. KES DAERAH KAB. PESISIR SELATAN","1302","Kab. Pesisir Selatan","13","10","Sumatera Barat"
"M1303","LAB. KES DAERAH KAB. SOLOK","1303","Kab. Solok","13","10","Sumatera Barat"
"M1304","LAB. KES DAERAH KAB. SIJUNJUNG","1304","Kab. Sijunjung","13","10","Sumatera Barat"
"M1305","LAB. KES DAERAH KAB. TANAH DATAR","1305","Kab. Tanah Datar","13","10","Sumatera Barat"
"M1306","LAB. KES DAERAH KAB. PADANG PARIAMAN","1306","Kab. Padang Pariaman","13","10","Sumatera Barat"
"M1307","LAB. KES DAERAH KAB. AGAM","1307","Kab. Agam","13","10","Sumatera Barat"
"M1308","LAB. KES DAERAH KAB. LIMA PULUH KOTA","1308","Kab. Lima Puluh Kota","13","10","Sumatera Barat"
"M1309","LAB. KES DAERAH KAB. PASAMAN","1309","Kab. Pasaman","13","10","Sumatera Barat"
"M1310","LAB. KES DAERAH KAB. SOLOK SELATAN","1310","Kab. Solok Selatan","13","10","Sumatera Barat"
"M1311","LAB. KES DAERAH KAB. DHARMASRAYA","1311","Kab. Dharmas Raya","13","10","Sumatera Barat"
"M1312","LAB. KES DAERAH KAB. PASAMAN BARAT","1312","Kab. Pasaman Barat","13","10","Sumatera Barat"
"M1371","LAB. KES DAERAH KOTA PADANG","1371","Kota Padang","13","10","Sumatera Barat"
"M1372","LAB. KES DAERAH KOTA SOLOK","1372","Kota Solok","13","10","Sumatera Barat"
"M1373","LAB. KES DAERAH KOTA SAWAHLUNTO","1373","Kota Sawah Lunto","13","10","Sumatera Barat"
"M1374","LAB. KES DAERAH KOTA PADANG PANJANG","1374","Kota Padang Panjang","13","10","Sumatera Barat"
"M1375","LAB. KES DAERAH KOTA BUKITTINGGI","1375","Kota Bukit Tinggi","13","10","Sumatera Barat"
"M1376","LAB. KES DAERAH KOTA PAYAKUMBUH","1376","Kota Payakumbuh","13","10","Sumatera Barat"
"M1377","LAB. KES DAERAH KOTA PARIAMAN","1377","Kota Pariaman","13","10","Sumatera Barat"
"M1400","LAB. KES DAERAH PROVINSI RIAU","1400",NULL,"14","10","Riau"
"M1401","LAB. KES DAERAH KAB. KUANTAN SINGINGI","1401","Kab. Kuantan Singingi ","14","10","Riau"
"M1402","LAB. KES DAERAH KAB. INDRAGIRI HULU","1402","Kab. Indragiri Hulu","14","10","Riau"
"M1403","LAB. KES DAERAH KAB. INDRAGIRI HILIR","1403","Kab. Indragiri Hilir","14","10","Riau"
"M1404","LAB. KES DAERAH KAB. PELALAWAN","1404","Kab. Pelalawan","14","10","Riau"
"M1405","LAB. KES DAERAH KAB. SIAK","1405","Kab. Siak","14","10","Riau"
"M1406","LAB. KES DAERAH KAB. KAMPAR","1406","Kab. Kampar","14","10","Riau"
"M1407","LAB. KES DAERAH KAB. ROKAN HULU","1407","Kab. Rokan Hulu","14","10","Riau"
"M1408","LAB. KES DAERAH KAB. BENGKALIS","1408","Kab. Bengkalis","14","10","Riau"
"M1409","LAB. KES DAERAH KAB. ROKAN HILIR","1409","Kab. Rokan Hilir","14","10","Riau"
"M1410","LAB. KES DAERAH KAB. KEPULAUAN MERANTI","1410","Kab. Kep. Meranti","14","10","Riau"
"M1471","LAB. KES DAERAH KOTA PEKANBARU","1471","Kota Pekan Baru","14","10","Riau"
"M1473","LAB. KES DAERAH KOTA DUMAI","1473","Kota Dumai","14","10","Riau"
"M1500","LAB. KES DAERAH PROVINSI JAMBI","1500",NULL,"15","10","Jambi"
"M1501","LAB. KES DAERAH KAB. KERINCI","1501","Kab. Kerinci","15","10","Jambi"
"M1502","LAB. KES DAERAH KAB. MERANGIN","1502","Kab. Merangin","15","10","Jambi"
"M1503","LAB. KES DAERAH KAB. SAROLANGUN","1503","Kab. Sarolangun","15","10","Jambi"
"M1504","LAB. KES DAERAH KAB. BATANG HARI","1504","Kab. Batang Hari","15","10","Jambi"
"M1505","LAB. KES DAERAH KAB. MUARO JAMBI","1505","Kab. Muaro Jambi","15","10","Jambi"
"M1506","LAB. KES DAERAH KAB. TANJUNG JABUNG TIMUR","1506","Kab. Tanjung Jabung Timur","15","10","Jambi"
"M1507","LAB. KES DAERAH KAB. TANJUNG JABUNG BARAT","1507","Kab. Tanjung Jabung Barat","15","10","Jambi"
"M1508","LAB. KES DAERAH KAB. TEBO","1508","Kab. Tebo","15","10","Jambi"
"M1509","LAB. KES DAERAH KAB. BUNGO","1509","Kab. Bungo","15","10","Jambi"
"M1571","LAB. KES DAERAH KOTA JAMBI","1571","Kota Jambi","15","10","Jambi"
"M1572","LAB. KES DAERAH KOTA SUNGAI PENUH","1572","Kota Sungai Penuh","15","10","Jambi"
"M1600","LAB. KES DAERAH PROVINSI SUMATERA SELATAN","1600",NULL,"16","10","Sumatera Selatan"
"M1601","LAB. KES DAERAH KAB. OGAN KOMERING ULU","1601","Kab. Ogan Komering Ulu","16","10","Sumatera Selatan"
"M3727T","Labkesda","1601","Kab. Ogan Komering Ulu","16","10","Sumatera Selatan"
"M1602","LAB. KES DAERAH KAB. OGAN KOMERING ILIR","1602","Kab. Ogan Komering Ilir","16","10","Sumatera Selatan"
"M1603","LAB. KES DAERAH KAB. MUARA ENIM","1603","Kab. Muara Enim","16","10","Sumatera Selatan"
"M1604","LAB. KES DAERAH KAB. LAHAT","1604","Kab. Lahat","16","10","Sumatera Selatan"
"M1605","LAB. KES DAERAH KAB. MUSI RAWAS","1605","Kab. Musi Rawas","16","10","Sumatera Selatan"
"M1606","LAB. KES DAERAH KAB. MUSI BANYUASIN","1606","Kab. Musi Banyuasin","16","10","Sumatera Selatan"
"M1607","LAB. KES DAERAH KAB. BANYU ASIN","1607","Kab. Banyuasin","16","10","Sumatera Selatan"
"M1608","LAB. KES DAERAH KAB. OGAN KOMERING ULU SELATAN","1608","Kab. Ogan Komering Ulu Selatan","16","10","Sumatera Selatan"
"M1609","LAB. KES DAERAH KAB. OGAN KOMERING ULU TIMUR","1609","Kab. Ogan Komering Ulu Timur","16","10","Sumatera Selatan"
"M1610","LAB. KES DAERAH KAB. OGAN ILIR","1610","Kab. Ogan Ilir","16","10","Sumatera Selatan"
"M1611","LAB. KES DAERAH KAB. EMPAT LAWANG","1611","Kab. Empat Lawang","16","10","Sumatera Selatan"
"M1671","LAB. KES DAERAH KOTA PALEMBANG","1671","Kota Palembang","16","10","Sumatera Selatan"
"M1672","LAB. KES DAERAH KOTA PRABUMULIH","1672","Kota Prabumulih","16","10","Sumatera Selatan"
"M1673","LAB. KES DAERAH KOTA PAGAR ALAM","1673","Kota Pagar Alam","16","10","Sumatera Selatan"
"M1674","LAB. KES DAERAH KOTA LUBUK LINGGAU","1674","Kota Lubuk Linggau","16","10","Sumatera Selatan"
"M1700","LAB. KES DAERAH PROVINSI BENGKULU","1700",NULL,"17","10","Bengkulu"
"M1701","LAB. KES DAERAH KAB. BENGKULU SELATAN","1701","Kab. Bengkulu Selatan","17","10","Bengkulu"
"M1702","LAB. KES DAERAH KAB. REJANG LEBONG","1702","Kab. Rejang Lebong","17","10","Bengkulu"
"M1703","LAB. KES DAERAH KAB. BENGKULU UTARA","1703","Kab. Bengkulu Utara","17","10","Bengkulu"
"M1704","LAB. KES DAERAH KAB. KAUR","1704","Kab. Kaur","17","10","Bengkulu"
"M1705","LAB. KES DAERAH KAB. SELUMA","1705","Kab. Seluma","17","10","Bengkulu"
"M1706","LAB. KES DAERAH KAB. MUKO-MUKO","1706","Kab. MukoNAMuko","17","10","Bengkulu"
"M1707","LAB. KES DAERAH KAB. LEBONG","1707","Kab. Lebong","17","10","Bengkulu"
"M1708","LAB. KES DAERAH KAB. KEPAHIANG","1708","Kab. Kepahiang ","17","10","Bengkulu"
"M1709","LAB. KES DAERAH KAB. BENGKULU TENGAH","1709","Kab. Bengkulu Tengah","17","10","Bengkulu"
"M1771","LAB. KES DAERAH KOTA BENGKULU","1771","Kota Bengkulu ","17","10","Bengkulu"
"M1800","LAB. KES DAERAH PROVINSI LAMPUNG","1800",NULL,"18","10","Lampung"
"M1801","LAB. KES DAERAH KAB. LAMPUNG BARAT","1801","Kab. Lampung Barat","18","10","Lampung"
"M1802","LAB. KES DAERAH KAB. TANGGAMUS","1802","Kab. Tanggamus ","18","10","Lampung"
"M1803","LAB. KES DAERAH KAB. LAMPUNG SELATAN","1803","Kab. Lampung Selatan","18","10","Lampung"
"M1804","LAB. KES DAERAH KAB. LAMPUNG TIMUR","1804","Kab. Lampung Timur","18","10","Lampung"
"M1805","LAB. KES DAERAH KAB. LAMPUNG TENGAH","1805","Kab. Lampung Tengah","18","10","Lampung"
"M1806","LAB. KES DAERAH KAB. LAMPUNG UTARA","1806","Kab. Lampung Utara","18","10","Lampung"
"M1807","LAB. KES DAERAH KAB. WAY KANAN","1807","Kab. Way Kanan","18","10","Lampung"
"M1808","LAB. KES DAERAH KAB. TULANGBAWANG","1808","Kab. Tulang Bawang","18","10","Lampung"
"M1809","LAB. KES DAERAH KAB. PESAWARAN","1809","Kab. Pesawaran","18","10","Lampung"
"M1810","LAB. KES DAERAH KAB. PRINGSEWU","1810","Kab. Pringsewu","18","10","Lampung"
"M1811","LAB. KES DAERAH KAB. MESUJI","1811","Kab. Mesuji","18","10","Lampung"
"M1812","LAB. KES DAERAH KAB. TULANG BAWANG BARAT","1812","Kab. Tulang Bawang Barat","18","10","Lampung"
"M1871","LAB. KES DAERAH KOTA BANDAR LAMPUNG","1871","Kota Bandar Lampung","18","10","Lampung"
"M1872","LAB. KES DAERAH KOTA METRO","1872","Kota Metro","18","10","Lampung"
"M1900","LAB. KES DAERAH PROVINSI KEP. BANGKA BELITUNG","1900",NULL,"19","10","Kep. Bangka Belitung "
"M1901","LAB. KES DAERAH KAB. BANGKA","1901","Kab. Bangka","19","10","Kep. Bangka Belitung "
"M1902","LAB. KES DAERAH KAB. BELITUNG","1902","Kab. Belitung","19","10","Kep. Bangka Belitung "
"M1903","LAB. KES DAERAH KAB. BANGKA BARAT","1903","Kab. Bangka Barat","19","10","Kep. Bangka Belitung "
"M1904","LAB. KES DAERAH KAB. BANGKA TENGAH","1904","Kab. Bangka Tengah","19","10","Kep. Bangka Belitung "
"M1905","LAB. KES DAERAH KAB. BANGKA SELATAN","1905","Kab. Bangka Selatan","19","10","Kep. Bangka Belitung "
"M1906","LAB. KES DAERAH KAB. BELITUNG TIMUR","1906","Kab. Belitung Timur","19","10","Kep. Bangka Belitung "
"M1971","LAB. KES DAERAH KOTA PANGKAL PINANG","1971","Kota Pangkal Pinang","19","10","Kep. Bangka Belitung "
"M2100","LAB. KES DAERAH PROVINSI KEP.RIAU","2100",NULL,"21","10","Kep. Riau"
"M2101","LAB. KES DAERAH KAB. KARIMUN","2101","Kab. Karimun","21","10","Kep. Riau"
"M2102","LAB. KES DAERAH KAB. BINTAN","2102","Kab. Bintan","21","10","Kep. Riau"
"M2103","LAB. KES DAERAH KAB. NATUNA","2103","Kab. Natuna","21","10","Kep. Riau"
"M2104","LAB. KES DAERAH KAB. LINGGA","2104","Kab. Lingga","21","10","Kep. Riau"
"M2105","LAB. KES DAERAH KAB. KEPULAUAN ANAMBAS","2105","Kab. Kep. Anambas","21","10","Kep. Riau"
"M2171","LAB. KES DAERAH KOTA BATAM","2171","Kota Batam","21","10","Kep. Riau"
"M2172","LAB. KES DAERAH KOTA TANJUNG PINANG","2172","Kota Tanjung Pinang","21","10","Kep. Riau"
"M3100","LAB. KES DAERAH PROVINSI DKI JAKARTA","3100",NULL,"31","10","DKI Jakarta "
"M3101","SULAB. KES DAERAH KEPULAUAN SERIBU","3101","Kab. Kep. Seribu","31","10","DKI Jakarta "
"M3171","SULAB. KES DAERAH KODYA JAKARTA SELATAN","3171","Kota Adm. Jakarta Selatan","31","10","DKI Jakarta "
"M3172","SULAB. KES DAERAH KODYA JAKARTA TIMUR","3172","Kota Adm. Jakarta Timur","31","10","DKI Jakarta "
"M3173","SULAB. KES DAERAH KODYA JAKARTA PUSAT","3173","Kota Adm. Jakarta Pusat","31","10","DKI Jakarta "
"M2587T","Balai Besar Laboratorium Kesehatan Jakarta","3173","Kota Adm. Jakarta Pusat","31","10","DKI Jakarta "
"M3174","SULAB. KES DAERAH KODYA JAKARTA BARAT","3174","Kota Adm. Jakarta Barat","31","10","DKI Jakarta "
"M3175","SULAB. KES DAERAH KODYA JAKARTA UTARA","3175","Kota Adm. Jakarta Utara","31","10","DKI Jakarta "
"M3200","LAB. KES DAERAH PROVINSI JAWA BARAT","3200",NULL,"32","10","Jawa Barat"
"M3201","LAB. KES DAERAH KAB. BOGOR","3201","Kab. Bogor","32","10","Jawa Barat"
"M3202","LAB. KES DAERAH KAB. SUKABUMI","3202","Kab. Sukabumi","32","10","Jawa Barat"
"M3203","LAB. KES DAERAH KAB. CIANJUR","3203","Kab. Cianjur","32","10","Jawa Barat"
"M3204","LAB. KES DAERAH KAB. BANDUNG","3204","Kab. Bandung","32","10","Jawa Barat"
"M3205","LAB. KES DAERAH KAB. GARUT","3205","Kab. Garut","32","10","Jawa Barat"
"M3206","LAB. KES DAERAH KAB. TASIKMALAYA","3206","Kab. Tasikmalaya","32","10","Jawa Barat"
"M3207","LAB. KES DAERAH KAB. CIAMIS","3207","Kab. Ciamis","32","10","Jawa Barat"
"M3208","LAB. KES DAERAH KAB. KUNINGAN","3208","Kab. Kuningan","32","10","Jawa Barat"
"M3209","LAB. KES DAERAH KAB. CIREBON","3209","Kab. Cirebon","32","10","Jawa Barat"
"M3210","LAB. KES DAERAH KAB. MAJALENGKA","3210","Kab. Majalengka","32","10","Jawa Barat"
"M3211","LAB. KES DAERAH KAB. SUMEDANG","3211","Kab. Sumedang","32","10","Jawa Barat"
"M3212","LAB. KES DAERAH KAB. INDRAMAYU","3212","Kab. Indramayu","32","10","Jawa Barat"
"M3213","LAB. KES DAERAH KAB. SUBANG","3213","Kab. Subang","32","10","Jawa Barat"
"M3214","LAB. KES DAERAH KAB. PURWAKARTA","3214","Kab. Purwakarta","32","10","Jawa Barat"
"M3215","LAB. KES DAERAH KAB. KARAWANG","3215","Kab. Karawang","32","10","Jawa Barat"
"M3216","LAB. KES DAERAH KAB. BEKASI","3216","Kab. Bekasi","32","10","Jawa Barat"
"M523T","Laboratorium Kesehatan Daerah Kabupaten Bekasi","3216","Kab. Bekasi","32","10","Jawa Barat"
"M3217","LAB. KES DAERAH KAB. BANDUNG BARAT","3217","Kab. Bandung Barat","32","10","Jawa Barat"
"M3271","LAB. KES DAERAH KOTA BOGOR","3271","Kota Bogor","32","10","Jawa Barat"
"M3272","LAB. KES DAERAH KOTA SUKABUMI","3272","Kota Sukabumi","32","10","Jawa Barat"
"M3273","LAB. KES DAERAH KOTA BANDUNG","3273","Kota Bandung","32","10","Jawa Barat"
"M3274","LAB. KES DAERAH KOTA CIREBON","3274","Kota Cirebon","32","10","Jawa Barat"
"M3275","LAB. KES DAERAH KOTA BEKASI","3275","Kota Bekasi","32","10","Jawa Barat"
"M3276","LAB. KES DAERAH KOTA DEPOK","3276","Kota Depok","32","10","Jawa Barat"
"M3277","LAB. KES DAERAH KOTA CIMAHI","3277","Kota Cimahi","32","10","Jawa Barat"
"M3278","LAB. KES DAERAH KOTA TASIKMALAYA","3278","Kota Tasikmalaya","32","10","Jawa Barat"
"M3279","LAB. KES DAERAH KOTA BANJAR","3279","Kota Banjar ","32","10","Jawa Barat"
"M3300","LAB. KES DAERAH PROVINSI JAWA TENGAH","3300",NULL,"33","10","Jawa Tengah"
"M3301","LAB. KES DAERAH KAB. CILACAP","3301","Kab. Cilacap","33","10","Jawa Tengah"
"M3302","LAB. KES DAERAH KAB. BANYUMAS","3302","Kab. Banyumas","33","10","Jawa Tengah"
"M3303","LAB. KES DAERAH KAB. PURBALINGGA","3303","Kab. Purbalingga","33","10","Jawa Tengah"
"M3304","LAB. KES DAERAH KAB. BANJARNEGARA","3304","Kab. Banjarnegara","33","10","Jawa Tengah"
"M3305","LAB. KES DAERAH KAB. KEBUMEN","3305","Kab. Kebumen","33","10","Jawa Tengah"
"M3306","LAB. KES DAERAH KAB. PURWOREJO","3306","Kab. Purworejo","33","10","Jawa Tengah"
"M3307","LAB. KES DAERAH KAB. WONOSOBO","3307","Kab. Wonosobo","33","10","Jawa Tengah"
"M3308","LAB. KES DAERAH KAB. MAGELANG","3308","Kab. Magelang","33","10","Jawa Tengah"
"M3309","LAB. KES DAERAH KAB. BOYOLALI","3309","Kab. Boyolali","33","10","Jawa Tengah"
"M3310","LAB. KES DAERAH KAB. KLATEN","3310","Kab. Klaten","33","10","Jawa Tengah"
"M3311","LAB. KES DAERAH KAB. SUKOHARJO","3311","Kab. Sukoharjo","33","10","Jawa Tengah"
"M3312","LAB. KES DAERAH KAB. WONOGIRI","3312","Kab. Wonogiri","33","10","Jawa Tengah"
"M3313","LAB. KES DAERAH KAB. KARANGANYAR","3313","Kab. Karanganyar","33","10","Jawa Tengah"
"M3314","LAB. KES DAERAH KAB. SRAGEN","3314","Kab. Sragen","33","10","Jawa Tengah"
"M3315","LAB. KES DAERAH KAB. GROBOGAN","3315","Kab. Grobogan","33","10","Jawa Tengah"
"M3316","LAB. KES DAERAH KAB. BLORA","3316","Kab. Blora","33","10","Jawa Tengah"
"M3317","LAB. KES DAERAH KAB. REMBANG","3317","Kab. Rembang","33","10","Jawa Tengah"
"M3318006S","LABORAT TEPAT","3318","Kab. Pati","33","10","Jawa Tengah"
"M3318","LAB. KES DAERAH KAB. PATI","3318","Kab. Pati","33","10","Jawa Tengah"
"M3319","LAB. KES DAERAH KAB. KUDUS","3319","Kab. Kudus","33","10","Jawa Tengah"
"M3320","LAB. KES DAERAH KAB. JEPARA","3320","Kab. Jepara","33","10","Jawa Tengah"
"M3321","LAB. KES DAERAH KAB. DEMAK","3321","Kab. Demak","33","10","Jawa Tengah"
"M3322","LAB. KES DAERAH KAB. SEMARANG","3322","Kab. Semarang","33","10","Jawa Tengah"
"M3323","LAB. KES DAERAH KAB. TEMANGGUNG","3323","Kab. Temanggung","33","10","Jawa Tengah"
"M3324","LAB. KES DAERAH KAB. KENDAL","3324","Kab. Kendal ","33","10","Jawa Tengah"
"M3325","LAB. KES DAERAH KAB. BATANG","3325","Kab. Batang","33","10","Jawa Tengah"
"M3326","LAB. KES DAERAH KAB. PEKALONGAN","3326","Kab. Pekalongan","33","10","Jawa Tengah"
"M3327","LAB. KES DAERAH KAB. PEMALANG","3327","Kab. Pemalang","33","10","Jawa Tengah"
"M3328","LAB. KES DAERAH KAB. TEGAL","3328","Kab. Tegal","33","10","Jawa Tengah"
"M3329004S","Laboratorium Klinik","3329","Kab. Brebes","33","10","Jawa Tengah"
"M3329","LAB. KES DAERAH KAB. BREBES","3329","Kab. Brebes","33","10","Jawa Tengah"
"M3371","LAB. KES DAERAH KOTA MAGELANG","3371","Kota Magelang","33","10","Jawa Tengah"
"M3372211S","Laboratorium Promedis","3372","Kota Surakarta","33","10","Jawa Tengah"
"M3372212S","Laboratorium Sarana Medika","3372","Kota Surakarta","33","10","Jawa Tengah"
"M3372213S"," Laboratorium Kimia Farma","3372","Kota Surakarta","33","10","Jawa Tengah"
"M3372214S","Laboratorium Budi Sehat","3372","Kota Surakarta","33","10","Jawa Tengah"
"M3372215S","Laboratorium Solo Lab","3372","Kota Surakarta","33","10","Jawa Tengah"
"M3372216S","Laboratorium Ultra Medika","3372","Kota Surakarta","33","10","Jawa Tengah"
"M3372217S","Laboratorium Notosuman","3372","Kota Surakarta","33","10","Jawa Tengah"
"M3372256S","Laboratorium Ultra Medika","3372","Kota Surakarta","33","10","Jawa Tengah"
"M3372263S","Laboratorium klinik cito","3372","Kota Surakarta","33","10","Jawa Tengah"
"M3372271S","Laboratorium Klinik Prodia","3372","Kota Surakarta","33","10","Jawa Tengah"
"M3372","LAB. KES DAERAH KOTA SURAKARTA","3372","Kota Surakarta","33","10","Jawa Tengah"
"M3373011S","LAB KLINIK PRODIA SALATIGA","3373","Kota Salatiga","33","10","Jawa Tengah"
"M3373012S","LAB KLINIK MEDICO","3373","Kota Salatiga","33","10","Jawa Tengah"
"M3373013S","LABORATORIUM PATRA MEDICA","3373","Kota Salatiga","33","10","Jawa Tengah"
"M3373","LAB. KES DAERAH KOTA SALATIGA","3373","Kota Salatiga","33","10","Jawa Tengah"
"M3374","LAB. KES DAERAH KOTA SEMARANG","3374","Kota Semarang","33","10","Jawa Tengah"
"M3375","LAB. KES DAERAH KOTA PEKALONGAN","3375","Kota Pekalongan","33","10","Jawa Tengah"
"M3376212S","Laboratorium Klinik Prodia","3376","Kota Tegal","33","10","Jawa Tengah"
"M3376213S","Laboratorium Klinik Citra","3376","Kota Tegal","33","10","Jawa Tengah"
"M3376214S","Laboratorium Klinik Cito","3376","Kota Tegal","33","10","Jawa Tengah"
"M3376","LAB. KES DAERAH KOTA TEGAL","3376","Kota Tegal","33","10","Jawa Tengah"
"M3400","LAB. KES DAERAH PROVINSI DIY","3400",NULL,"34","10","DI Jogja2"
"M3401","LAB. KES DAERAH KAB. KULON PROGO","3401","Kab. Kulon Progo","34","10","DI Jogja2"
"M3402","LAB. KES DAERAH KAB. BANTUL","3402","Kab. Bantul","34","10","DI Jogja2"
"M3403","LAB. KES DAERAH KAB. GUNUNG KIDUL","3403","Kab. Gunung Kidul","34","10","DI Jogja2"
"M3404","LAB. KES DAERAH KAB. SLEMAN","3404","Kab. Sleman","34","10","DI Jogja2"
"M3471301S","Lab. Sentra Diagnostik Waskitha","3471","Kota Yogyakarta","34","10","DI Jogja2"
"M3471302S","Lab. Klinik Prodia Bintaran Kidul","3471","Kota Yogyakarta","34","10","DI Jogja2"
"M3471303S","Lab. Pramita","3471","Kota Yogyakarta","34","10","DI Jogja2"
"M3471304S","Lab. Avilena","3471","Kota Yogyakarta","34","10","DI Jogja2"
"M3471305S","Lab. Klinik Prodia Jl P Mangkubumi","3471","Kota Yogyakarta","34","10","DI Jogja2"
"M3471306S","Lab. Klinik Ultra Medika","3471","Kota Yogyakarta","34","10","DI Jogja2"
"M3471","LAB. KES DAERAH KOTA YOGYAKARTA","3471","Kota Yogyakarta","34","10","DI Jogja2"
"M3500","LAB. KES DAERAH PROVINSI JAWA TIMUR","3500",NULL,"35","10","Jawa Timur"
"M3501","LAB. KES DAERAH KAB. PACITAN","3501","Kab. Pacitan","35","10","Jawa Timur"
"M3502","LAB. KES DAERAH KAB. PONOROGO","3502","Kab. Ponorogo","35","10","Jawa Timur"
"M3503","LAB. KES DAERAH KAB. TRENGGALEK","3503","Kab. Trenggalek","35","10","Jawa Timur"
"M3504","LAB. KES DAERAH KAB. TULUNGAGUNG","3504","Kab. Tulungagung","35","10","Jawa Timur"
"M3505","LAB. KES DAERAH KAB. BLITAR","3505","Kab. Blitar","35","10","Jawa Timur"
"M3506","LAB. KES DAERAH KAB. KEDIRI","3506","Kab. Kediri","35","10","Jawa Timur"
"M3507","LAB. KES DAERAH KAB. MALANG","3507","Kab. Malang","35","10","Jawa Timur"
"M3508","LAB. KES DAERAH KAB. LUMAJANG","3508","Kab. Lumajang","35","10","Jawa Timur"
"M3509","LAB. KES DAERAH KAB. JEMBER","3509","Kab. Jember","35","10","Jawa Timur"
"M3510","LAB. KES DAERAH KAB. BANYUWANGI","3510","Kab. Banyuwangi","35","10","Jawa Timur"
"M3511","LAB. KES DAERAH KAB. BONDOWOSO","3511","Kab. Bondowoso","35","10","Jawa Timur"
"M3512","LAB. KES DAERAH KAB. SITUBONDO","3512","Kab. Situbondo","35","10","Jawa Timur"
"M3513","LAB. KES DAERAH KAB. PROBOLINGGO","3513","Kab. Probolinggo","35","10","Jawa Timur"
"M3514","LAB. KES DAERAH KAB. PASURUAN","3514","Kab. Pasuruan","35","10","Jawa Timur"
"M3515","LAB. KES DAERAH KAB. SIDOARJO","3515","Kab. Sidoarjo","35","10","Jawa Timur"
"M3516","LAB. KES DAERAH KAB. MOJOKERTO","3516","Kab. Mojokerto","35","10","Jawa Timur"
"M3517","LAB. KES DAERAH KAB. JOMBANG","3517","Kab. Jombang","35","10","Jawa Timur"
"M3518","LAB. KES DAERAH KAB. NGANJUK","3518","Kab. Nganjuk","35","10","Jawa Timur"
"M3519","LAB. KES DAERAH KAB. MADIUN","3519","Kab. Madiun","35","10","Jawa Timur"
"M3520","LAB. KES DAERAH KAB. MAGETAN","3520","Kab. Magetan","35","10","Jawa Timur"
"M3521","LAB. KES DAERAH KAB. NGAWI","3521","Kab. Ngawi","35","10","Jawa Timur"
"M3522","LAB. KES DAERAH KAB. BOJONEGORO","3522","Kab. Bojonegoro","35","10","Jawa Timur"
"M3523","LAB. KES DAERAH KAB. TUBAN","3523","Kab. Tuban","35","10","Jawa Timur"
"M3524","LAB. KES DAERAH KAB. LAMONGAN","3524","Kab. Lamongan ","35","10","Jawa Timur"
"M3525","LAB. KES DAERAH KAB. GRESIK","3525","Kab. Gresik","35","10","Jawa Timur"
"M3526","LAB. KES DAERAH KAB. BANGKALAN","3526","Kab. Bangkalan","35","10","Jawa Timur"
"M3527","LAB. KES DAERAH KAB. SAMPANG","3527","Kab. Sampang","35","10","Jawa Timur"
"M3528","LAB. KES DAERAH KAB. PAMEKASAN","3528","Kab. Pamekasan","35","10","Jawa Timur"
"M3529","LAB. KES DAERAH KAB. SUMENEP","3529","Kab. Sumenep","35","10","Jawa Timur"
"M3571","LAB. KES DAERAH KOTA KEDIRI","3571","Kota Kediri ","35","10","Jawa Timur"
"M3572","LAB. KES DAERAH KOTA BLITAR","3572","Kota Blitar","35","10","Jawa Timur"
"M3573","LAB. KES DAERAH KOTA MALANG","3573","Kota Malang","35","10","Jawa Timur"
"M3574","LAB. KES DAERAH KOTA PROBOLINGGO","3574","Kota Probolonggo","35","10","Jawa Timur"
"M3575","LAB. KES DAERAH KOTA PASURUAN","3575","Kota Pasuruan","35","10","Jawa Timur"
"M3576","LAB. KES DAERAH KOTA MOJOKERTO","3576","Kota Mojokerto","35","10","Jawa Timur"
"M3577","LAB. KES DAERAH KOTA MADIUN","3577","Kota Madiun","35","10","Jawa Timur"
"M3578","LAB. KES DAERAH KOTA SURABAYA","3578","Kota Surabaya","35","10","Jawa Timur"
"M3579","LAB. KES DAERAH KOTA BATU","3579","Kota Batu","35","10","Jawa Timur"
"M3600","LAB. KES DAERAH PROVINSI BANTEN","3600",NULL,"36","10","Banten"
"M3601","LAB. KES DAERAH KAB. PANDEGLANG","3601","Kab. Pandeglang","36","10","Banten"
"M3602","LAB. KES DAERAH KAB. LEBAK","3602","Kab. Lebak","36","10","Banten"
"M3603","LAB. KES DAERAH KAB. TANGERANG","3603","Kab. Tangerang","36","10","Banten"
"M3604","LAB. KES DAERAH KAB. SERANG","3604","Kab. Serang","36","10","Banten"
"M3671","LAB. KES DAERAH KOTA TANGERANG","3671","Kota Tangerang","36","10","Banten"
"M3672","LAB. KES DAERAH KOTA CILEGON","3672","Kota Cilegon","36","10","Banten"
"M3673029S","LAB. BIOMED","3673","Kota Serang","36","10","Banten"
"M3673030S","LAB .KRAKATAU MEDIKA","3673","Kota Serang","36","10","Banten"
"M3673031S","BIOLAB","3673","Kota Serang","36","10","Banten"
"M3673","LAB. KES DAERAH KOTA SERANG","3673","Kota Serang","36","10","Banten"
"M3674","LAB. KES DAERAH KOTA TANGERANG SELATAN","3674","Kota Tangerang Selatan","36","10","Banten"
"M5100","LAB. KES DAERAH PROVINSI BALI","5100",NULL,"51","10","Bali"
"M5101","LAB. KES DAERAH KAB. JEMBRANA","5101","Kab. Jembrana","51","10","Bali"
"M5102","LAB. KES DAERAH KAB. TABANAN","5102","Kab. Tabanan","51","10","Bali"
"M5103","LAB. KES DAERAH KAB. BADUNG","5103","Kab. Badung","51","10","Bali"
"M5104","LAB. KES DAERAH KAB. GIANYAR","5104","Kab. Gianyar","51","10","Bali"
"M5105","LAB. KES DAERAH KAB. KLUNGKUNG","5105","Kab. Klungkung","51","10","Bali"
"M5106","LAB. KES DAERAH KAB. BANGLI","5106","Kab. Bangli","51","10","Bali"
"M5107","LAB. KES DAERAH KAB. KARANG ASEM","5107","Kab. Karang Asem","51","10","Bali"
"M5108","LAB. KES DAERAH KAB. BULELENG","5108","Kab. Buleleng","51","10","Bali"
"M5171","LAB. KES DAERAH KOTA DENPASAR","5171","Kota Denpasar","51","10","Bali"
"M5432T","Labkes Contoh","6402","Kab. Kutai Barat","51","10","Bali"
"M5200","LAB. KES DAERAH PROVINSI NUSA TENGGARA BARAT","5200",NULL,"52","10","Nusa Tenggara Barat"
"M5201","LAB. KES DAERAH KAB. LOMBOK BARAT","5201","Kab. Lombok Barat","52","10","Nusa Tenggara Barat"
"M5202","LAB. KES DAERAH KAB. LOMBOK TENGAH","5202","Kab. Lombok Tengah","52","10","Nusa Tenggara Barat"
"M5203","LAB. KES DAERAH KAB. LOMBOK TIMUR","5203","Kab. Lombok Timur","52","10","Nusa Tenggara Barat"
"M5204","LAB. KES DAERAH KAB. SUMBAWA","5204","Kab. Sumbawa","52","10","Nusa Tenggara Barat"
"M5205","LAB. KES DAERAH KAB. DOMPU","5205","Kab. Dompu","52","10","Nusa Tenggara Barat"
"M5206","LAB. KES DAERAH KAB. BIMA","5206","Kab. Bima","52","10","Nusa Tenggara Barat"
"M5207","LAB. KES DAERAH KAB. SUMBAWA BARAT","5207","Kab. Sumbawa Barat","52","10","Nusa Tenggara Barat"
"M5208","LAB. KES DAERAH KAB. LOMBOK UTARA","5208","Kab. Lombok Utara","52","10","Nusa Tenggara Barat"
"M5271","LAB. KES DAERAH KOTA MATARAM","5271","Kota Mataram","52","10","Nusa Tenggara Barat"
"M5272","LAB. KES DAERAH KOTA BIMA","5272","Kota Bima","52","10","Nusa Tenggara Barat"
"M5300","LAB. KES DAERAH PROVINSI NUSA TENGGARA TIMUR","5300",NULL,"53","10","Nusa Tenggara Timur"
"M5301","LAB. KES DAERAH KAB. SUMBA BARAT","5301","Kab. Sumba Barat","53","10","Nusa Tenggara Timur"
"M5302","LAB. KES DAERAH KAB. SUMBA TIMUR","5302","Kab. Sumba Timur","53","10","Nusa Tenggara Timur"
"M5303","LAB. KES DAERAH KAB. KUPANG","5303","Kab. Kupang","53","10","Nusa Tenggara Timur"
"M5304","LAB. KES DAERAH KAB. TIMOR TENGAH SELATAN","5304","Kab. Timor Tengah Selatan","53","10","Nusa Tenggara Timur"
"M5305","LAB. KES DAERAH KAB. TIMOR TENGAH UTARA","5305","Kab. Timor Tengah Utara","53","10","Nusa Tenggara Timur"
"M5306","LAB. KES DAERAH KAB. BELU","5306","Kab. Belu","53","10","Nusa Tenggara Timur"
"M5307","LAB. KES DAERAH KAB. ALOR","5307","Kab. Alor","53","10","Nusa Tenggara Timur"
"M5308","LAB. KES DAERAH KAB. LEMBATA","5308","Kab. Lembata","53","10","Nusa Tenggara Timur"
"M5309","LAB. KES DAERAH KAB. FLORES TIMUR","5309","Kab. Flores Timur","53","10","Nusa Tenggara Timur"
"M5310","LAB. KES DAERAH KAB. SIKKA","5310","Kab. Sikka","53","10","Nusa Tenggara Timur"
"M5311","LAB. KES DAERAH KAB. ENDE","5311","Kab. Ende","53","10","Nusa Tenggara Timur"
"M5312","LAB. KES DAERAH KAB. NGADA","5312","Kab. Ngada","53","10","Nusa Tenggara Timur"
"M5313","LAB. KES DAERAH KAB. MANGGARAI","5313","Kab. Manggarai","53","10","Nusa Tenggara Timur"
"M5314","LAB. KES DAERAH KAB. ROTE NDAO","5314","Kab. Rote Ndao","53","10","Nusa Tenggara Timur"
"M5315","LAB. KES DAERAH KAB. MANGGARAI BARAT","5315","Kab. Manggarai Barat","53","10","Nusa Tenggara Timur"
"M5316","LAB. KES DAERAH KAB. SUMBA TENGAH","5316","Kab. Sumba Tengah","53","10","Nusa Tenggara Timur"
"M5317","LAB. KES DAERAH KAB. SUMBA BARAT DAYA","5317","Kab. Sumba Barat Daya","53","10","Nusa Tenggara Timur"
"M5318","LAB. KES DAERAH KAB. NAGEKEO","5318","Kab. Nagekeo","53","10","Nusa Tenggara Timur"
"M5319","LAB. KES DAERAH KAB. MANGGARAI TIMUR","5319","Kab. Manggarai Timur","53","10","Nusa Tenggara Timur"
"M5320","LAB. KES DAERAH KAB. SABU RAIJUA","5320","Kab. Sabu Raijua","53","10","Nusa Tenggara Timur"
"M5371","LAB. KES DAERAH KOTA KUPANG","5371","Kota Kupang","53","10","Nusa Tenggara Timur"
"M6100","LAB. KES DAERAH PROVINSI KALIMANTAN BARAT","6100",NULL,"61","10","Kalimantan Barat"
"M6101","LAB. KES DAERAH KAB. SAMBAS","6101","Kab. Sambas","61","10","Kalimantan Barat"
"M6102","LAB. KES DAERAH KAB. BENGKAYANG","6102","Kab. Bengkayang","61","10","Kalimantan Barat"
"M6103","LAB. KES DAERAH KAB. LANDAK","6103","Kab. Landak","61","10","Kalimantan Barat"
"M6104","LAB. KES DAERAH KAB. PONTIANAK","6104","Kab. Pontianak","61","10","Kalimantan Barat"
"M6105","LAB. KES DAERAH KAB. SANGGAU","6105","Kab. Sanggau","61","10","Kalimantan Barat"
"M6106","LAB. KES DAERAH KAB. KETAPANG","6106","Kab. Ketapang","61","10","Kalimantan Barat"
"M6107","LAB. KES DAERAH KAB. SINTANG","6107","Kab. Sintang","61","10","Kalimantan Barat"
"M6108","LAB. KES DAERAH KAB. KAPUAS HULU","6108","Kab. Kapuas Hulu","61","10","Kalimantan Barat"
"M6109","LAB. KES DAERAH KAB. SEKADAU","6109","Kab. Sekadau","61","10","Kalimantan Barat"
"M6110","LAB. KES DAERAH KAB. MELAWI","6110","Kab. Melawi","61","10","Kalimantan Barat"
"M6111","LAB. KES DAERAH KAB. KAYONG UTARA","6111","Kab. Kayong Utara","61","10","Kalimantan Barat"
"M6112","LAB. KES DAERAH KAB. KUBU RAYA","6112","Kab. Kubu Raya","61","10","Kalimantan Barat"
"M6171","LAB. KES DAERAH KOTA PONTIANAK","6171","Kota Pontianak","61","10","Kalimantan Barat"
"M6172","LAB. KES DAERAH KOTA SINGKAWANG","6172","Kota Singkawang","61","10","Kalimantan Barat"
"M6200","LAB. KES DAERAH PROVINSI KALIMANTAN TENGAH","6200",NULL,"62","10","Kalimantan Tengah"
"M6201","LAB. KES DAERAH KAB. KOTAWARINGIN BARAT","6201","Kab. Kotawaringin Barat","62","10","Kalimantan Tengah"
"M6202","LAB. KES DAERAH KAB. KOTAWARINGIN TIMUR","6202","Kab. Kotawaringin Timur","62","10","Kalimantan Tengah"
"M6203","LAB. KES DAERAH KAB. KAPUAS","6203","Kab. Kapuas","62","10","Kalimantan Tengah"
"M6204","LAB. KES DAERAH KAB. BARITO SELATAN","6204","Kab. Barito Selatan","62","10","Kalimantan Tengah"
"M6205","LAB. KES DAERAH KAB. BARITO UTARA","6205","Kab. Barito Utara","62","10","Kalimantan Tengah"
"M6206","LAB. KES DAERAH KAB. SUKAMARA","6206","Kab. Sukamara","62","10","Kalimantan Tengah"
"M6207","LAB. KES DAERAH KAB. LAMANDAU","6207","Kab. Lamandau","62","10","Kalimantan Tengah"
"M6208","LAB. KES DAERAH KAB. SERUYAN","6208","Kab. Seruyan","62","10","Kalimantan Tengah"
"M6209","LAB. KES DAERAH KAB. KATINGAN","6209","Kab. Katingan","62","10","Kalimantan Tengah"
"M6210","LAB. KES DAERAH KAB. PULANG PISAU","6210","Kab. Pulang Pisau","62","10","Kalimantan Tengah"
"M6211","LAB. KES DAERAH KAB. GUNUNG MAS","6211","Kab. Gunung Mas","62","10","Kalimantan Tengah"
"M6212","LAB. KES DAERAH KAB. BARITO TIMUR","6212","Kab. Barito Timur","62","10","Kalimantan Tengah"
"M6213","LAB. KES DAERAH KAB. MURUNG RAYA","6213","Kab. Murung Raya","62","10","Kalimantan Tengah"
"M6271","LAB. KES DAERAH KOTA PALANGKA RAYA","6271","Kota Palangkaraya","62","10","Kalimantan Tengah"
"M6300","LAB. KES DAERAH PROVINSI KALIMANTAN SELATAN","6300",NULL,"63","10","Kalimantan Selatan"
"M6301","LAB. KES DAERAH KAB. TANAH LAUT","6301","Kab. Tanah Laut","63","10","Kalimantan Selatan"
"M6302","LAB. KES DAERAH KAB. KOTA BARU","6302","Kab. Kota Baru","63","10","Kalimantan Selatan"
"M6303","LAB. KES DAERAH KAB. BANJAR","6303","Kab. Banjar","63","10","Kalimantan Selatan"
"M6304","LAB. KES DAERAH KAB. BARITO KUALA","6304","Kab. Barito Kuala","63","10","Kalimantan Selatan"
"M6305","LAB. KES DAERAH KAB. TAPIN","6305","Kab. Tapin","63","10","Kalimantan Selatan"
"M6306","LAB. KES DAERAH KAB. HULU SUNGAI SELATAN","6306","Kab. Hulu Sungai Selatan","63","10","Kalimantan Selatan"
"M6307","LAB. KES DAERAH KAB. HULU SUNGAI TENGAH","6307","Kab. Hulu Sungai Tengah","63","10","Kalimantan Selatan"
"M6308","LAB. KES DAERAH KAB. HULU SUNGAI UTARA","6308","Kab. Hulu Sungai Utara","63","10","Kalimantan Selatan"
"M6309","LAB. KES DAERAH KAB. TABALONG","6309","Kab. Tabalong","63","10","Kalimantan Selatan"
"M6310","LAB. KES DAERAH KAB. TANAH BUMBU","6310","Kab. Tanah Bumbu","63","10","Kalimantan Selatan"
"M6311","LAB. KES DAERAH KAB. BALANGAN","6311","Kab. Balangan","63","10","Kalimantan Selatan"
"M6371","LAB. KES DAERAH KOTA BANJARMASIN","6371","Kota Banjarmasin","63","10","Kalimantan Selatan"
"M6372","LAB. KES DAERAH KOTA BANJAR BARU","6372","Kota Banjar Baru","63","10","Kalimantan Selatan"
"M6400","LAB. KES DAERAH PROVINSI KALIMANTAN TIMUR","6400",NULL,"64","10","Kalimantan Timur"
"M6401","LAB. KES DAERAH KAB. PASER","6401","Kab. Paser","64","10","Kalimantan Timur"
"M6402","LAB. KES DAERAH KAB. KUTAI BARAT","6402","Kab. Kutai Barat","64","10","Kalimantan Timur"
"M6403","LAB. KES DAERAH KAB. KUTAI KARTANEGARA","6403","Kab. Kutai Kartanegara","64","10","Kalimantan Timur"
"M6407","LAB. KES DAERAH KAB. BULUNGAN","6407",NULL,"64","10","Kalimantan Timur"
"M6408","LAB. KES DAERAH KAB. NUNUKAN","6408",NULL,"64","10","Kalimantan Timur"
"M6409","LAB. KES DAERAH KAB. PENAJAM PASER UTARA","6409","Kab. Penajam Paser Utara","64","10","Kalimantan Timur"
"M6471","LAB. KES DAERAH KOTA BALIKPAPAN","6471","Kota Balikpapan","64","10","Kalimantan Timur"
"M6472","LAB. KES DAERAH KOTA SAMARINDA","6472","Kota Samarinda","64","10","Kalimantan Timur"
"M6474","LAB. KES DAERAH KOTA BONTANG","6474","Kota Bontang","64","10","Kalimantan Timur"
"M6404","LAB. KES DAERAH KAB. KUTAI TIMUR","6404","Kab. Kutai Timur","65","10","Kalimantan Utara"
"M6405","LAB. KES DAERAH KAB. BERAU","6405","Kab. Berau","65","10","Kalimantan Utara"
"M6406","LAB. KES DAERAH KAB. MALINAU","6406",NULL,"65","10","Kalimantan Utara"
"M6410","LAB. KES DAERAH KAB. TANA TIDUNG","6410",NULL,"65","10","Kalimantan Utara"
"M6473","LAB. KES DAERAH KOTA TARAKAN","6473",NULL,"65","10","Kalimantan Utara"
"M7100","LAB. KES DAERAH PROVINSI SULAWESI UTARA","7100",NULL,"71","10","Sulawesi Utara"
"M7101","LAB. KES DAERAH KAB. BOLAANG MONGONDOW","7101","Kab. Bolaang Mongondow","71","10","Sulawesi Utara"
"M7102","LAB. KES DAERAH KAB. MINAHASA","7102","Kab. Minahasa","71","10","Sulawesi Utara"
"M7103","LAB. KES DAERAH KAB. KEPULAUAN SANGIHE","7103","Kab. Kepulauan Sangihe","71","10","Sulawesi Utara"
"M7104","LAB. KES DAERAH KAB. KEPULAUAN TALAUD","7104","Kab. Kepulauan Talaud","71","10","Sulawesi Utara"
"M7105","LAB. KES DAERAH KAB. MINAHASA SELATAN","7105","Kab. Minahasa Selatan","71","10","Sulawesi Utara"
"M7106","LAB. KES DAERAH KAB. MINAHASA UTARA","7106","Kab. Minahasa Utara","71","10","Sulawesi Utara"
"M7107","LAB. KES DAERAH KAB. BOLAANG MONGONDOW UTARA","7107","Kab. Bolaang Mongondow Utara","71","10","Sulawesi Utara"
"M7108","LAB. KES DAERAH KAB. SIAU TAGULANDANG BIARO","7108","Kab. Siau Tagulandang Biaro","71","10","Sulawesi Utara"
"M7109","LAB. KES DAERAH KAB. MINAHASA TENGGARA","7109","Kab. Minahasa Tenggara","71","10","Sulawesi Utara"
"M7110","LAB. KES DAERAH KAB. BOLAANG MONGONDOW SELATAN","7110","Kab. Bolaang Mongondow Selatan","71","10","Sulawesi Utara"
"M7111","LAB. KES DAERAH KAB. BOLAANG MONGONDOW TIMUR","7111","Kab. Bolaang Mongondow Timur","71","10","Sulawesi Utara"
"M7171","LAB. KES DAERAH KOTA MANADO","7171","Kota Manado","71","10","Sulawesi Utara"
"M7172","LAB. KES DAERAH KOTA BITUNG","7172","Kota Bitung","71","10","Sulawesi Utara"
"M7173","LAB. KES DAERAH KOTA TOMOHON","7173","Kota Tomohon","71","10","Sulawesi Utara"
"M7174","LAB. KES DAERAH KOTA MOBAGU","7174","Kota Kotamobago","71","10","Sulawesi Utara"
"M7200","LAB. KES DAERAH PROVINSI SULAWESI TENGAH","7200",NULL,"72","10","Sulawesi Tengah"
"M7201","LAB. KES DAERAH KAB. BANGGAI KEPULAUAN","7201","Kab. Bangai Kepulauan","72","10","Sulawesi Tengah"
"M7202","LAB. KES DAERAH KAB. BANGGAI","7202","Kab. Bangai ","72","10","Sulawesi Tengah"
"M7203","LAB. KES DAERAH KAB. MOROWALI","7203","Kab. Morowali","72","10","Sulawesi Tengah"
"M7204","LAB. KES DAERAH KAB. POSO","7204","Kab. Poso","72","10","Sulawesi Tengah"
"M7205","LAB. KES DAERAH KAB. DONGGALA","7205","Kab. Donggala","72","10","Sulawesi Tengah"
"M7206","LAB. KES DAERAH KAB. TOLI-TOLI","7206","Kab. Toli Toli","72","10","Sulawesi Tengah"
"M7207","LAB. KES DAERAH KAB. BUOL","7207","Kab. Buol","72","10","Sulawesi Tengah"
"M7208","LAB. KES DAERAH KAB. PARIGI MOUTONG","7208","Kab. Parigi Moutong","72","10","Sulawesi Tengah"
"M7209","LAB. KES DAERAH KAB. TOJO UNA-UNA","7209","Kab. Tojo UnaNAUna","72","10","Sulawesi Tengah"
"M7210","LAB. KES DAERAH KAB. SIGI","7210","Kab. Sigi","72","10","Sulawesi Tengah"
"M7271","LAB. KES DAERAH KOTA PALU","7271","Kota Palu","72","10","Sulawesi Tengah"
"M9747T","BALAI LABORATORIUM KESEHATAN DAERAH","7471","Kota Kendari","72","10","Sulawesi Tengah"
"M7300","LAB. KES DAERAH PROVINSI SULAWESI SELATAN","7300",NULL,"73","10","Sulawesi Selatan"
"M7301","LAB. KES DAERAH KAB. KEPULAUAN SELAYAR","7301","Kab. Kepulauan Selayar","73","10","Sulawesi Selatan"
"M7302","LAB. KES DAERAH KAB. BULUKUMBA","7302","Kab. Bulukumba","73","10","Sulawesi Selatan"
"M7303","LAB. KES DAERAH KAB. BANTAENG","7303","Kab. Bantaeng","73","10","Sulawesi Selatan"
"M7304","LAB. KES DAERAH KAB. JENEPONTO","7304","Kab. Jeneponto","73","10","Sulawesi Selatan"
"M7305","LAB. KES DAERAH KAB. TAKALAR","7305","Kab. Takalar","73","10","Sulawesi Selatan"
"M7306","LAB. KES DAERAH KAB. GOWA","7306","Kab. Gowa","73","10","Sulawesi Selatan"
"M7307","LAB. KES DAERAH KAB. SINJAI","7307","Kab. Sinjai","73","10","Sulawesi Selatan"
"M7308","LAB. KES DAERAH KAB. MAROS","7308","Kab. Maros","73","10","Sulawesi Selatan"
"M7309","LAB. KES DAERAH KAB. PANGKAJENE DAN KEPULAUAN","7309","Kab. Pangkajene Kepulauan","73","10","Sulawesi Selatan"
"M7310","LAB. KES DAERAH KAB. BARRU","7310","Kab. Barru","73","10","Sulawesi Selatan"
"M7311","LAB. KES DAERAH KAB. BONE","7311","Kab. Bone","73","10","Sulawesi Selatan"
"M7312","LAB. KES DAERAH KAB. SOPPENG","7312","Kab. Soppeng","73","10","Sulawesi Selatan"
"M7313","LAB. KES DAERAH KAB. WAJO","7313","Kab. Wajo","73","10","Sulawesi Selatan"
"M7314","LAB. KES DAERAH KAB. SIDENRENG RAPPANG","7314","Kab. Sidenreng Rappang","73","10","Sulawesi Selatan"
"M7315","LAB. KES DAERAH KAB. PINRANG","7315","Kab. Pinrang","73","10","Sulawesi Selatan"
"M7316","LAB. KES DAERAH KAB. ENREKANG","7316","Kab. Enrekang","73","10","Sulawesi Selatan"
"M7317","LAB. KES DAERAH KAB. LUWU","7317","Kab. Luwu","73","10","Sulawesi Selatan"
"M7318","LAB. KES DAERAH KAB. TANA TORAJA","7318","Kab. Tana Toraja","73","10","Sulawesi Selatan"
"M7322","LAB. KES DAERAH KAB. LUWU UTARA","7322","Kab. Luwu Utara","73","10","Sulawesi Selatan"
"M7325","LAB. KES DAERAH KAB. LUWU TIMUR","7325","Kab. Luwu Timur","73","10","Sulawesi Selatan"
"M7326","LAB. KES DAERAH KAB. TORAJA UTARA","7326","Kab. Toraja Utara","73","10","Sulawesi Selatan"
"M7371","LAB. KES DAERAH KOTA MAKASSAR","7371","Kota Makasar","73","10","Sulawesi Selatan"
"M7372","LAB. KES DAERAH KOTA PAREPARE","7372","Kota PareNA Pare","73","10","Sulawesi Selatan"
"M7373","LAB. KES DAERAH KOTA PALOPO","7373","Kota Palopo","73","10","Sulawesi Selatan"
"M7400","LAB. KES DAERAH PROVINSI TENGGARA","7400",NULL,"74","10","Sulawesi Tenggara"
"M7401","LAB. KES DAERAH KAB. BUTON","7401","Kab. Buton","74","10","Sulawesi Tenggara"
"M7402","LAB. KES DAERAH KAB. MUNA","7402","Kab. Muna","74","10","Sulawesi Tenggara"
"M7403","LAB. KES DAERAH KAB. KONAWE","7403","Kab. Konawe","74","10","Sulawesi Tenggara"
"M7404","LAB. KES DAERAH KAB. KOLAKA","7404","Kab. Kolaka","74","10","Sulawesi Tenggara"
"M7405","LAB. KES DAERAH KAB. KONAWE SELATAN","7405","Kab. Konawe Selatan","74","10","Sulawesi Tenggara"
"M7406","LAB. KES DAERAH KAB. BOMBANA","7406","Kab. Bombana","74","10","Sulawesi Tenggara"
"M7407","LAB. KES DAERAH KAB. WAKATOBI","7407","Kab. Wakatobi","74","10","Sulawesi Tenggara"
"M7408","LAB. KES DAERAH KAB. KOLAKA UTARA","7408","Kab. Kolaka Utara","74","10","Sulawesi Tenggara"
"M7409","LAB. KES DAERAH KAB. BUTON UTARA","7409","Kab. Buton Utara","74","10","Sulawesi Tenggara"
"M7410","LAB. KES DAERAH KAB. KONAWE UTARA","7410","Kab. Konawe Utara","74","10","Sulawesi Tenggara"
"M7471","LAB. KES DAERAH KOTA KENDARI","7471","Kota Kendari","74","10","Sulawesi Tenggara"
"M2130T","BALAI LABORATORIUM KESEHATAN DAERAH","7471","Kota Kendari","74","10","Sulawesi Tenggara"
"M7472","LAB. KES DAERAH KOTA BAU-BAU","7472","Kota BauNABau","74","10","Sulawesi Tenggara"
"M7500","LAB. KES DAERAH PROVINSI GORONTALO","7500",NULL,"75","10","Gorontalo"
"M7501","LAB. KES DAERAH KAB. BOALEMO","7501","Kab. Boalemo","75","10","Gorontalo"
"M7502","LAB. KES DAERAH KAB. GORONTALO","7502","Kab. Gorontalo","75","10","Gorontalo"
"M7503","LAB. KES DAERAH KAB. POHUWATO","7503","Kab. Pohuwato","75","10","Gorontalo"
"M7504","LAB. KES DAERAH KAB. BONE BOLANGO","7504","Kab. Bone Bolango","75","10","Gorontalo"
"M7505","LAB. KES DAERAH KAB. GORONTALO UTARA","7505","Kab. Gorontalo Utara","75","10","Gorontalo"
"M7571","LAB. KES DAERAH KOTA GORONTALO","7571","Kota Gorontalo","75","10","Gorontalo"
"M7600","LAB. KES DAERAH PROVINSI SULAWESI BARAT","7600",NULL,"76","10","Sulawesi Barat"
"M7601","LAB. KES DAERAH KAB. MAJENE","7601","Kab. Majene","76","10","Sulawesi Barat"
"M7602","LAB. KES DAERAH KAB. POLEWALI MANDAR","7602","Kab. Polewali Mandar","76","10","Sulawesi Barat"
"M7603","LAB. KES DAERAH KAB. MAMASA","7603","Kab. Mamasa","76","10","Sulawesi Barat"
"M7604","LAB. KES DAERAH KAB. MAMUJU","7604","Kab. Mamuju","76","10","Sulawesi Barat"
"M7605","LAB. KES DAERAH KAB. MAMUJU UTARA","7605","Kab. Mamuju Utara","76","10","Sulawesi Barat"
"M8100","LAB. KES DAERAH PROVINSI MALUKU","8100",NULL,"81","10","Maluku"
"M8101","LAB. KES DAERAH KAB. MALUKU TENGGARA BARAT","8101","Kab. Maluku Tenggara Barat","81","10","Maluku"
"M8102","LAB. KES DAERAH KAB. MALUKU TENGGARA","8102","Kab. Maluku Tenggara ","81","10","Maluku"
"M8103","LAB. KES DAERAH KAB. MALUKU TENGAH","8103","Kab. Maluku Tengah","81","10","Maluku"
"M8104","LAB. KES DAERAH KAB. BURU","8104","Kab. Buru","81","10","Maluku"
"M8105","LAB. KES DAERAH KAB. KEPULAUAN ARU","8105","Kab. Kepulauan Aru","81","10","Maluku"
"M8106","LAB. KES DAERAH KAB. SERAM BAGIAN BARAT","8106","Kab. Seram Bagian Barat","81","10","Maluku"
"M8107","LAB. KES DAERAH KAB. SERAM BAGIAN TIMUR","8107","Kab. Seram Bagian Timur","81","10","Maluku"
"M8108","LAB. KES DAERAH KAB. MALUKU BARAT DAYA","8108","Kab. Maluku Barat Daya","81","10","Maluku"
"M8109","LAB. KES DAERAH KAB. BURU SELATAN","8109","Kab. Buru Selatan","81","10","Maluku"
"M8171","LAB. KES DAERAH KOTA AMBON","8171","Kota Ambon","81","10","Maluku"
"M8172","LAB. KES DAERAH KOTA TUAL","8172","Kota Tual","81","10","Maluku"
"M8200","LAB. KES DAERAH PROVINSI MALUKU UTARA","8200",NULL,"82","10","Maluku Utara"
"M8201","LAB. KES DAERAH KAB. HALMAHERA BARAT","8201","Kab. Halmahera Barat","82","10","Maluku Utara"
"M8202","LAB. KES DAERAH KAB. HALMAHERA TENGAH","8202","Kab. Halmahera Tengah","82","10","Maluku Utara"
"M8203","LAB. KES DAERAH KAB. KEPULAUAN SULA","8203","Kab. Kepulauan Sula","82","10","Maluku Utara"
"M8204","LAB. KES DAERAH KAB. HALMAHERA SELATAN","8204","Kab. Halmahera Selatan","82","10","Maluku Utara"
"M8205","LAB. KES DAERAH KAB. HALMAHERA UTARA","8205","Kab. Halmahera Utara","82","10","Maluku Utara"
"M8206","LAB. KES DAERAH KAB. HALMAHERA TIMUR","8206","Kab. Halmahera Timur","82","10","Maluku Utara"
"M8207","LAB. KES DAERAH KAB. PULAU MOROTAI","8207","Kab. Pulau Morotai","82","10","Maluku Utara"
"M8271","LAB. KES DAERAH KOTA TERNATE","8271","Kota Ternate","82","10","Maluku Utara"
"M8272","LAB. KES DAERAH KOTA TIDORE KEPULAUAN","8272","Kota Tidore Kepulauan","82","10","Maluku Utara"
"M9100","LAB. KES DAERAH PROVINSI PAPUA BARAT","9100",NULL,"91","10","Papua Barat"
"M9101","LAB. KES DAERAH KAB. FAKFAK","9101","Kab. FakNAFak","91","10","Papua Barat"
"M9102","LAB. KES DAERAH KAB. KAIMANA","9102","Kab. Kaimana","91","10","Papua Barat"
"M9103","LAB. KES DAERAH KAB. TELUK WONDAMA","9103","Kab. Teluk Wondama","91","10","Papua Barat"
"M9104","LAB. KES DAERAH KAB. TELUK BINTUNI","9104","Kab. Teluk Bintuni","91","10","Papua Barat"
"M9105","LAB. KES DAERAH KAB. MANOKWARI","9105","Kab. Manokwari","91","10","Papua Barat"
"M9106","LAB. KES DAERAH KAB. SORONG SELATAN","9106","Kab. Sorong Selatan","91","10","Papua Barat"
"M9107","LAB. KES DAERAH KAB. SORONG","9107","Kab. Sorong ","91","10","Papua Barat"
"M9108","LAB. KES DAERAH KAB. RAJA AMPAT","9108","Kab. Raja Ampat","91","10","Papua Barat"
"M9109","LAB. KES DAERAH KAB. TAMBRAUW","9109","Kab. Tambraw","91","10","Papua Barat"
"M9110","LAB. KES DAERAH KAB. MAYBRAT","9110","Kab. Maybrat","91","10","Papua Barat"
"M9171","LAB. KES DAERAH KOTA SORONG","9171","Kota Sorong","91","10","Papua Barat"
"M9400","LAB. KES DAERAH PROVINSI PAPUA","9400",NULL,"94","10","Papua "
"M9401","LAB. KES DAERAH KAB. MERAUKE","9401","Kab. Merauke","94","10","Papua "
"M9402","LAB. KES DAERAH KAB. JAYAWIJAYA","9402","Kab. Jayawijaya","94","10","Papua "
"M9403","LAB. KES DAERAH KAB. JAYAPURA","9403","Kab. Jayapura","94","10","Papua "
"M9404","LAB. KES DAERAH KAB. NABIRE","9404","Kab. Nabire","94","10","Papua "
"M9408","LAB. KES DAERAH KAB. YAPEN WAROPEN","9408","Kab. Kepulauan Yapen","94","10","Papua "
"M9409","LAB. KES DAERAH KAB. BIAK NUMFOR","9409","Kab. Biak Numfor","94","10","Papua "
"M9410","LAB. KES DAERAH KAB. PANIAI","9410","Kab. Paniai","94","10","Papua "
"M9411","LAB. KES DAERAH KAB. PUNCAK JAYA","9411","Kab. Puncak Jaya","94","10","Papua "
"M9412","LAB. KES DAERAH KAB. MIMIKA","9412","Kab. Mimika","94","10","Papua "
"M9413","LAB. KES DAERAH KAB. BOVEN DIGOEL","9413","Kab. Boven Digoel","94","10","Papua "
"M9414","LAB. KES DAERAH KAB. MAPPI","9414","Kab. Mappi","94","10","Papua "
"M9415","LAB. KES DAERAH KAB. ASMAT","9415","Kab. Asmat","94","10","Papua "
"M9416","LAB. KES DAERAH KAB. YAHUKIMO","9416","Kab. Yahukimo","94","10","Papua "
"M9417","LAB. KES DAERAH KAB. PEGUNUNGAN BINTANG","9417","Kab. Pegunungan Bintang","94","10","Papua "
"M9418","LAB. KES DAERAH KAB. TOLIKARA","9418","Kab. Tolikara","94","10","Papua "
"M9419","LAB. KES DAERAH KAB. SARMI","9419","Kab. Sarmi","94","10","Papua "
"M9420","LAB. KES DAERAH KAB. KEEROM","9420","Kab. Keerom","94","10","Papua "
"M9426","LAB. KES DAERAH KAB. WAROPEN","9426","Kab. Waropen","94","10","Papua "
"M9427","LAB. KES DAERAH KAB. SUPIORI","9427","Kab. Supiori","94","10","Papua "
"M9428","LAB. KES DAERAH KAB. MAMBERAMO RAYA","9428","Kab. Memberamo Raya","94","10","Papua "
"M9429","LAB. KES DAERAH KAB. NDUGA","9429","Kab. Nduga","94","10","Papua "
"M9430","LAB. KES DAERAH KAB. LANNY JAYA","9430","Kab. Lanny Jaya","94","10","Papua "
"M9431","LAB. KES DAERAH KAB. MAMBERAMO TENGAH","9431","Kab. Memberamo Tengah","94","10","Papua "
"M9432","LAB. KES DAERAH KAB. YALIMO","9432","Kab. Yalimo","94","10","Papua "
"M9433","LAB. KES DAERAH KAB. PUNCAK","9433","Kab. Puncak  ","94","10","Papua "
"M9434","LAB. KES DAERAH KAB. DOGIYAI","9434","Kab. Dogiyai","94","10","Papua "
"M9435","LAB. KES DAERAH KAB. INTAN JAYA","9435","Kab. Intan Jaya","94","10","Papua "
"M9436","LAB. KES DAERAH KAB. DEIYAI","9436","Kab. Deiyai","94","10","Papua "
"M9471","LAB. KES DAERAH KOTA JAYAPURA","9471","Kota Jayapura","94","10","Papua "
