"Username","UPTD","Kode Kabupaten","Nama Kabupaten","Kode Provinsi","ref_jenis_faskes_kode","Nama Provinsi"
"2U8306T","","",NULL,"","97",NULL
"2U9599T","Rsud dr mYunu","",NULL,"","97",NULL
"2U2063T","UPTD Balai Pengelola Farmasi dan Perbekalan Kesehatan","7471","Kota Kendari","74","97","Sulawesi Tenggara"
"2U3026T","UPTD Balai Pengelola Farmasi dan Perbekalan Kesehatan","7471","Kota Kendari","74","97","Sulawesi Tenggara"
